pipelined-computer/tb_computer.vcd
$date
	Wed May  6 15:04:27 2026
$end
$version
	Icarus Verilog
$end
$timescale
	100ps
$end
$scope module tb_computer $end
$var wire 16 ! writedata [15:0] $end
$var wire 1 " memwrite $end
$var wire 16 # dataaddr [15:0] $end
$var reg 1 $ Exception_Flag $end
$var reg 1 % clk $end
$var reg 1 & reset $end
$scope function instr_name $end
$var reg 16 ' instr [15:0] $end
$upscope $end
$scope module dut $end
$var wire 1 $ Exception_Flag $end
$var wire 1 % clk $end
$var wire 16 ( dataaddr [15:0] $end
$var wire 1 ) mem_stall $end
$var wire 1 & reset $end
$var wire 16 * writedata [15:0] $end
$var wire 16 + readdataM [15:0] $end
$var wire 16 , pcF [15:0] $end
$var wire 1 " memwrite $end
$var wire 1 - memreadM $end
$var wire 16 . instrF [15:0] $end
$var wire 1 / dmem_ready $end
$var wire 16 0 aluoutM [15:0] $end
$scope module cpuUnit $end
$var wire 1 $ Exception_Flag $end
$var wire 1 % clk $end
$var wire 1 ) mem_stall $end
$var wire 1 - memreadM $end
$var wire 1 & reset $end
$var wire 4 1 writeregW [3:0] $end
$var wire 4 2 writeregM [3:0] $end
$var wire 4 3 writeregE [3:0] $end
$var wire 16 4 writedataM [15:0] $end
$var wire 1 5 stallW $end
$var wire 1 6 stallM $end
$var wire 1 7 stallF $end
$var wire 1 8 stallE $end
$var wire 1 9 stallD $end
$var wire 4 : rtE [3:0] $end
$var wire 4 ; rtD [3:0] $end
$var wire 4 < rsE [3:0] $end
$var wire 4 = rsD [3:0] $end
$var wire 1 > regwriteW $end
$var wire 1 ? regwriteM $end
$var wire 1 @ regwriteE $end
$var wire 1 A regwriteD $end
$var wire 2 B regdstD [1:0] $end
$var wire 16 C readdataM [15:0] $end
$var wire 16 D pcF [15:0] $end
$var wire 1 " memwriteM $end
$var wire 1 E memwriteD $end
$var wire 1 F memtoregM $end
$var wire 1 G memtoregE $end
$var wire 1 H memtoregD $end
$var wire 1 I membaseD $end
$var wire 1 J jumplinkD $end
$var wire 1 K jumpD $end
$var wire 16 L instrF [15:0] $end
$var wire 16 M instrD [15:0] $end
$var wire 2 N forwardbE [1:0] $end
$var wire 1 O forwardbD $end
$var wire 2 P forwardaE [1:0] $end
$var wire 1 Q forwardaD $end
$var wire 1 R flushE $end
$var wire 1 S flushD $end
$var wire 1 T flagwriteD $end
$var wire 1 U branchsrcD $end
$var wire 1 V branchneD $end
$var wire 1 W branchD $end
$var wire 1 X alusrcD $end
$var wire 16 Y aluoutM [15:0] $end
$var wire 4 Z alucontrolD [3:0] $end
$scope module ctrl $end
$var wire 4 [ funct [3:0] $end
$var wire 4 \ op [3:0] $end
$var wire 1 A regWrite $end
$var wire 2 ] regDst [1:0] $end
$var wire 1 E memWrite $end
$var wire 1 H memToReg $end
$var wire 1 I memBase $end
$var wire 1 J jumpLink $end
$var wire 1 K jump $end
$var wire 1 T flagWrite $end
$var wire 1 U branchSrc $end
$var wire 1 V branchNe $end
$var wire 1 W branch $end
$var wire 1 X aluSrc $end
$var wire 2 ^ aluOP [1:0] $end
$var wire 4 _ aluCTRL [3:0] $end
$scope module ad $end
$var wire 4 ` funct [3:0] $end
$var wire 4 a op [3:0] $end
$var wire 2 b aluOP [1:0] $end
$var reg 4 c aluCTRL [3:0] $end
$upscope $end
$scope module md $end
$var wire 4 d op [3:0] $end
$var wire 1 A regWrite $end
$var wire 2 e regDst [1:0] $end
$var wire 1 E memWrite $end
$var wire 1 H memToReg $end
$var wire 1 I memBase $end
$var wire 1 J jumpLink $end
$var wire 1 K jump $end
$var wire 1 T flagWrite $end
$var wire 1 U branchSrc $end
$var wire 1 V branchNe $end
$var wire 1 W branch $end
$var wire 1 X aluSrc $end
$var wire 2 f aluOP [1:0] $end
$var reg 15 g controls [14:0] $end
$upscope $end
$upscope $end
$scope module dp $end
$var wire 1 $ Exception_Flag $end
$var wire 4 h alucontrolD [3:0] $end
$var wire 1 X alusrcD $end
$var wire 1 W branchD $end
$var wire 1 V branchneD $end
$var wire 1 U branchsrcD $end
$var wire 1 % clk $end
$var wire 1 T flagwriteD $end
$var wire 1 K jumpD $end
$var wire 1 J jumplinkD $end
$var wire 1 I membaseD $end
$var wire 1 H memtoregD $end
$var wire 1 E memwriteD $end
$var wire 1 i pcSrcD $end
$var wire 1 j pcSrcNeD $end
$var wire 2 k regdstD [1:0] $end
$var wire 1 A regwriteD $end
$var wire 1 & reset $end
$var wire 4 l rsD [3:0] $end
$var wire 4 m rtD [3:0] $end
$var wire 1 n zeroE $end
$var wire 1 5 stallW $end
$var wire 1 6 stallM $end
$var wire 1 7 stallF $end
$var wire 1 8 stallE $end
$var wire 1 9 stallD $end
$var wire 16 o srcbD [15:0] $end
$var wire 16 p srcaD [15:0] $end
$var wire 16 q srcB3E [15:0] $end
$var wire 16 r srcB2E [15:0] $end
$var wire 16 s srcA2E [15:0] $end
$var wire 16 t signImmShD [15:0] $end
$var wire 16 u signImmD [15:0] $end
$var wire 16 v resultW [15:0] $end
$var wire 16 w readdataM [15:0] $end
$var wire 4 x readReg2D [3:0] $end
$var wire 4 y rdD [3:0] $end
$var wire 16 z pcPlus2F [15:0] $end
$var wire 16 { pcNextBrFD [15:0] $end
$var wire 16 | pcJumpFD [15:0] $end
$var wire 1 } overflowE $end
$var wire 1 ~ negativeE $end
$var wire 1 !" jrD $end
$var wire 16 "" instrF [15:0] $end
$var wire 4 #" instrD_rs [3:0] $end
$var wire 4 $" instrD_rd [3:0] $end
$var wire 2 %" forwardbE [1:0] $end
$var wire 1 O forwardbD $end
$var wire 2 &" forwardaE [1:0] $end
$var wire 1 Q forwardaD $end
$var wire 1 R flushE $end
$var wire 1 S flushD $end
$var wire 16 '" flagsdataE [15:0] $end
$var wire 16 (" comparbD [15:0] $end
$var wire 16 )" comparaD [15:0] $end
$var wire 1 *" carryE $end
$var wire 16 +" aluoutE [15:0] $end
$var wire 16 ," aluOrMemW [15:0] $end
$var wire 16 -" aluImmD [15:0] $end
$var reg 4 ." alucontrolE [3:0] $end
$var reg 16 /" aluoutM [15:0] $end
$var reg 16 0" aluoutW [15:0] $end
$var reg 1 1" alusrcE $end
$var reg 16 2" epc [15:0] $end
$var reg 16 3" flagsdataM [15:0] $end
$var reg 16 4" flagsdataW [15:0] $end
$var reg 1 5" flagwriteE $end
$var reg 1 6" flagwriteM $end
$var reg 1 7" flagwriteW $end
$var reg 16 8" instrD [15:0] $end
$var reg 1 9" jumplinkE $end
$var reg 1 :" jumplinkM $end
$var reg 1 ;" jumplinkW $end
$var reg 1 G memtoregE $end
$var reg 1 F memtoregM $end
$var reg 1 <" memtoregW $end
$var reg 1 =" memwriteE $end
$var reg 1 " memwriteM_out $end
$var reg 16 >" pcF [15:0] $end
$var reg 16 ?" pcNextFD [15:0] $end
$var reg 16 @" pcPlus2D [15:0] $end
$var reg 16 A" pcPlus2E [15:0] $end
$var reg 16 B" pcPlus2M [15:0] $end
$var reg 16 C" pcPlus2W [15:0] $end
$var reg 4 D" rdE [3:0] $end
$var reg 4 E" readReg1D [3:0] $end
$var reg 16 F" readdataW [15:0] $end
$var reg 2 G" regdstE [1:0] $end
$var reg 1 @ regwriteE $end
$var reg 1 ? regwriteM $end
$var reg 1 > regwriteW $end
$var reg 4 H" rsE [3:0] $end
$var reg 4 I" rtE [3:0] $end
$var reg 16 J" signImmE [15:0] $end
$var reg 16 K" srcaE [15:0] $end
$var reg 16 L" srcbE [15:0] $end
$var reg 16 M" writedataM [15:0] $end
$var reg 4 N" writeregE [3:0] $end
$var reg 4 O" writeregM [3:0] $end
$var reg 4 P" writeregW [3:0] $end
$scope module aluUnit $end
$var wire 16 Q" aSigned [15:0] $end
$var wire 4 R" aluCTRL [3:0] $end
$var wire 16 S" bSigned [15:0] $end
$var wire 1 % clk $end
$var wire 1 n zero $end
$var wire 16 T" sumSlt [15:0] $end
$var wire 1 U" sumSign $end
$var wire 1 ~ negative $end
$var wire 17 V" fullSum [16:0] $end
$var wire 16 W" condinvb [15:0] $end
$var wire 1 *" carry $end
$var wire 1 X" bSign $end
$var wire 4 Y" bShiftAmt [3:0] $end
$var wire 1 Z" bSg $end
$var wire 16 [" b [15:0] $end
$var wire 1 \" aSign $end
$var wire 16 ]" a [15:0] $end
$var wire 16 ^" HiLo_lo [15:0] $end
$var wire 16 _" HiLo_hi [15:0] $end
$var wire 32 `" HiLoSigned [31:0] $end
$var reg 32 a" HiLo [31:0] $end
$var reg 1 } overflow $end
$var reg 16 b" result [15:0] $end
$upscope $end
$scope module fwdaEmux $end
$var wire 16 c" d0 [15:0] $end
$var wire 16 d" d2 [15:0] $end
$var wire 16 e" d3 [15:0] $end
$var wire 2 f" s [1:0] $end
$var wire 16 g" result_23 [15:0] $end
$var wire 16 h" result_01 [15:0] $end
$var wire 16 i" data_out [15:0] $end
$var wire 16 j" d1 [15:0] $end
$var parameter 32 k" n $end
$scope module u1 $end
$var wire 16 l" d0 [15:0] $end
$var wire 1 m" s $end
$var wire 16 n" data_out [15:0] $end
$var wire 16 o" d1 [15:0] $end
$var parameter 32 p" n $end
$upscope $end
$scope module u2 $end
$var wire 16 q" d0 [15:0] $end
$var wire 16 r" d1 [15:0] $end
$var wire 1 s" s $end
$var wire 16 t" data_out [15:0] $end
$var parameter 32 u" n $end
$upscope $end
$scope module u3 $end
$var wire 16 v" d0 [15:0] $end
$var wire 16 w" d1 [15:0] $end
$var wire 1 x" s $end
$var wire 16 y" data_out [15:0] $end
$var parameter 32 z" n $end
$upscope $end
$upscope $end
$scope module fwdadmux $end
$var wire 16 {" d1 [15:0] $end
$var wire 1 Q s $end
$var wire 16 |" data_out [15:0] $end
$var wire 16 }" d0 [15:0] $end
$var parameter 32 ~" n $end
$upscope $end
$scope module fwdbEmux $end
$var wire 16 !# d0 [15:0] $end
$var wire 16 "# d2 [15:0] $end
$var wire 16 ## d3 [15:0] $end
$var wire 2 $# s [1:0] $end
$var wire 16 %# result_23 [15:0] $end
$var wire 16 &# result_01 [15:0] $end
$var wire 16 '# data_out [15:0] $end
$var wire 16 (# d1 [15:0] $end
$var parameter 32 )# n $end
$scope module u1 $end
$var wire 16 *# d0 [15:0] $end
$var wire 1 +# s $end
$var wire 16 ,# data_out [15:0] $end
$var wire 16 -# d1 [15:0] $end
$var parameter 32 .# n $end
$upscope $end
$scope module u2 $end
$var wire 16 /# d0 [15:0] $end
$var wire 16 0# d1 [15:0] $end
$var wire 1 1# s $end
$var wire 16 2# data_out [15:0] $end
$var parameter 32 3# n $end
$upscope $end
$scope module u3 $end
$var wire 16 4# d0 [15:0] $end
$var wire 16 5# d1 [15:0] $end
$var wire 1 6# s $end
$var wire 16 7# data_out [15:0] $end
$var parameter 32 8# n $end
$upscope $end
$upscope $end
$scope module fwdbdmux $end
$var wire 16 9# d1 [15:0] $end
$var wire 1 O s $end
$var wire 16 :# data_out [15:0] $end
$var wire 16 ;# d0 [15:0] $end
$var parameter 32 <# n $end
$upscope $end
$scope module immsh $end
$var wire 16 =# Y [15:0] $end
$var wire 16 ># A [15:0] $end
$upscope $end
$scope module jalMux $end
$var wire 16 ?# d1 [15:0] $end
$var wire 1 ;" s $end
$var wire 16 @# data_out [15:0] $end
$var wire 16 A# d0 [15:0] $end
$var parameter 32 B# n $end
$upscope $end
$scope module resMux $end
$var wire 16 C# d0 [15:0] $end
$var wire 16 D# d1 [15:0] $end
$var wire 1 <" s $end
$var wire 16 E# data_out [15:0] $end
$var parameter 32 F# n $end
$upscope $end
$scope module rf $end
$var wire 1 % clk $end
$var wire 1 7" flagWrite $end
$var wire 16 G# flagsData [15:0] $end
$var wire 16 H# readData1 [15:0] $end
$var wire 16 I# readData2 [15:0] $end
$var wire 4 J# readReg1 [3:0] $end
$var wire 4 K# readReg2 [3:0] $end
$var wire 16 L# writeData [15:0] $end
$var wire 1 > writeEnable $end
$var wire 4 M# writeReg [3:0] $end
$var integer 32 N# i [31:0] $end
$upscope $end
$scope module se $end
$var wire 8 O# A [7:0] $end
$var wire 16 P# Y [15:0] $end
$upscope $end
$scope module srcBmux $end
$var wire 16 Q# d0 [15:0] $end
$var wire 16 R# d1 [15:0] $end
$var wire 1 1" s $end
$var wire 16 S# data_out [15:0] $end
$var parameter 32 T# n $end
$upscope $end
$upscope $end
$scope module hu $end
$var wire 1 $ Exception_Flag $end
$var wire 1 W branchD $end
$var wire 1 V branchneD $end
$var wire 1 U# branchstall $end
$var wire 1 S flushD $end
$var wire 1 R flushE $end
$var wire 1 V# lwstall $end
$var wire 1 ) mem_stall $end
$var wire 1 G memtoregE $end
$var wire 1 F memtoregM $end
$var wire 1 @ regwriteE $end
$var wire 1 ? regwriteM $end
$var wire 1 > regwriteW $end
$var wire 4 W# rsD [3:0] $end
$var wire 4 X# rsE [3:0] $end
$var wire 4 Y# rtD [3:0] $end
$var wire 4 Z# rtE [3:0] $end
$var wire 1 9 stallD $end
$var wire 1 8 stallE $end
$var wire 1 7 stallF $end
$var wire 1 6 stallM $end
$var wire 1 5 stallW $end
$var wire 4 [# writeregE [3:0] $end
$var wire 4 \# writeregM [3:0] $end
$var wire 4 ]# writeregW [3:0] $end
$var reg 1 Q forwardaD $end
$var reg 2 ^# forwardaE [1:0] $end
$var reg 1 O forwardbD $end
$var reg 2 _# forwardbE [1:0] $end
$upscope $end
$upscope $end
$scope module dmemUnit $end
$var wire 16 `# address [15:0] $end
$var wire 1 % clk $end
$var wire 1 - memRead $end
$var wire 1 " memWrite $end
$var wire 16 a# readData [15:0] $end
$var wire 1 & reset $end
$var wire 16 b# writeData [15:0] $end
$var parameter 32 c# LATENCY $end
$var reg 4 d# delayCounter [3:0] $end
$var reg 1 / dmem_ready $end
$scope begin $ivl_for_loop0 $end
$var integer 32 e# i [31:0] $end
$upscope $end
$upscope $end
$scope module imemUnit $end
$var wire 6 f# address [5:0] $end
$var wire 16 g# readData [15:0] $end
$var integer 32 h# i [31:0] $end
$upscope $end
$upscope $end
$scope begin $ivl_for_loop1 $end
$var integer 32 i# cycle [31:0] $end
$upscope $end
$scope task print_header $end
$upscope $end
$scope task print_row $end
$var integer 32 j# cycle [31:0] $end
$upscope $end
$upscope $end
$enddefinitions $end
$comment Show the parameter values. $end
$dumpall
b101 c#
b10000 T#
b10000 F#
b10000 B#
b10000 <#
b10000 8#
b10000 3#
b10000 .#
b10000 )#
b10000 ~"
b10000 z"
b10000 u"
b10000 p"
b10000 k"
$end
#0
$dumpvars
b0 j#
b0 i#
b1000000 h#
b1000100101000000 g#
b0 f#
b1000000 e#
bx d#
b0 b#
b0 a#
b0 `#
b0 _#
b0 ^#
b0 ]#
b0 \#
b0 [#
b0 Z#
b0 Y#
b0 X#
b0 W#
0V#
0U#
b0 S#
b0 R#
b0 Q#
b0 P#
b0 O#
b10000 N#
b0 M#
b0 L#
b0 K#
b0 J#
b0 I#
b0 H#
b0 G#
b0 E#
b0 D#
b0 C#
b0 A#
b0 @#
b0 ?#
b0 >#
b0 =#
b0 ;#
b0 :#
b0 9#
b0 7#
06#
b0 5#
b0 4#
b0 2#
01#
b0 0#
b0 /#
b0 -#
b0 ,#
0+#
b0 *#
b0 (#
b0 '#
b0 &#
b0 %#
b0 $#
b0 ##
b0 "#
b0 !#
b0 }"
b0 |"
b0 {"
b0 y"
0x"
b0 w"
b0 v"
b0 t"
0s"
b0 r"
b0 q"
b0 o"
b0 n"
0m"
b0 l"
b0 j"
b0 i"
b0 h"
b0 g"
b0 f"
b0 e"
b0 d"
b0 c"
b0 b"
bx a"
b0 `"
bx _"
bx ^"
b0 ]"
0\"
b0 ["
0Z"
b0 Y"
0X"
b0 W"
b0 V"
0U"
b0 T"
b0 S"
b0 R"
b0 Q"
b0 P"
b0 O"
b0 N"
b0 M"
b0 L"
b0 K"
b0 J"
b0 I"
b0 H"
b0 G"
b0 F"
b0 E"
b0 D"
b0 C"
b0 B"
b0 A"
b0 @"
b10 ?"
b0 >"
0="
0<"
0;"
0:"
09"
b1111000000000000 8"
07"
06"
05"
b0 4"
b0 3"
b0 2"
01"
b0 0"
b0 /"
b0 ."
b0 -"
b0 ,"
b0 +"
0*"
b0 )"
b0 ("
b1 '"
b0 &"
b0 %"
b0 $"
b0 #"
b1000100101000000 ""
0!"
0~
0}
b0 |
b0 {
b10 z
b0 y
b0 x
b0 w
b0 v
b0 u
b0 t
b0 s
b0 r
b0 q
b0 p
b0 o
1n
b0 m
b0 l
b0 k
0j
0i
b10 h
b0 g
b0 f
b0 e
b1111 d
b10 c
b0 b
b1111 a
b0 `
b10 _
b0 ^
b0 ]
b1111 \
b0 [
b10 Z
b0 Y
0X
0W
0V
0U
0T
0S
0R
0Q
b0 P
0O
b0 N
b1111000000000000 M
b1000100101000000 L
0K
0J
0I
0H
0G
0F
0E
b0 D
b0 C
b0 B
0A
0@
0?
0>
b0 =
b0 <
b0 ;
b0 :
09
08
07
06
05
b0 4
b0 3
b0 2
b0 1
b0 0
x/
b1000100101000000 .
0-
b0 ,
b0 +
b0 *
0)
b0 (
bx '
1&
0%
0$
b0 #
0"
b0 !
$end
#50
0/
b0 d#
1%
#100
0%
#150
1%
#160
b1 i#
0&
#200
0%
#210
b10 i#
b1111000000000000 '
b1 j#
#250
1A
1X
b1 B
b1 ]
b1 e
b1 k
b11 ^
b11 b
b11 f
b1001 =
b1001 l
b1001 W#
b1001 E"
b1001 J#
b10000000 t
b10000000 =#
b1000000 -"
b1100 Z
b1100 _
b1100 c
b1100 h
b100101110000000 g
b100 #"
b1001 $"
b1001 ;
b1001 m
b1001 Y#
b1001 x
b1001 K#
b1001 y
b1000000 u
b1000000 >#
b1000000 P#
b1000000 O#
b1001010000000 |
b1000 \
b1000 a
b1000 d
b100 ?"
b1000000100000100 .
b1000000100000100 L
b1000000100000100 ""
b1000000100000100 g#
b1 f#
b1 3"
b10 ."
b10 R"
b10000010 {
b10 @"
b1000100101000000 M
b1000100101000000 8"
b100 z
b10 ,
b10 D
b10 >"
1%
#300
0%
#310
b11 i#
b1000100101000000 '
b10 j#
#350
1U"
1X"
b1 =
b1 l
b1 W#
b1 E"
b1 J#
b1000 t
b1000 =#
b100 -"
b1111111111000000 T"
b1111111110111111 W"
b111000000000100 .
b111000000000100 L
b111000000000100 ""
b111000000000100 g#
b10 f#
b110 ?"
b0 #"
b1 $"
b1 ;
b1 m
b1 Y#
b1 x
b1 K#
b1 y
b100 u
b100 >#
b100 P#
b100 O#
b1000001000 |
b100 [
b100 `
b0 '"
0n
b1000000 +"
b1000000 b"
b1111111111000000 V"
b1000000 S"
b1000000 q
b1000000 ["
b1000000 S#
b1001 3
b1001 N"
b1001 [#
b110 z
b100 ,
b100 D
b100 >"
b1100 {
b100 @"
b1000000100000100 M
b1000000100000100 8"
b1100 ."
b1100 R"
b1 G"
11"
1@
b1001 D"
b1001 :
b1001 I"
b1001 Z#
b1001 <
b1001 H"
b1001 X#
b10 A"
b1000000 J"
b1000000 R#
b1 4"
b1 G#
1%
#400
0%
#410
b100 i#
b1000000100000100 '
b11 j#
#450
b1111111111111100 T"
b10 Z
b10 _
b10 c
b10 h
b1111111111111100 V"
b1111111111111011 W"
0X
b10 B
b10 ]
b10 e
b10 k
b0 ^
b0 b
b0 f
1K
1J
b100 Y"
b100 +"
b100 b"
b0 =
b0 l
b0 W#
b0 E"
b0 J#
b100010000011000 g
b1000000 g"
b1000000 t"
b1000000 w"
b1000000 %#
b1000000 2#
b1000000 5#
b1 3
b1 N"
b1 [#
b100 S"
b100 q
b100 ["
b100 S#
b0 $"
b0 ;
b0 m
b0 Y#
b0 x
b0 K#
b0 y
b1000 |
b111 \
b111 a
b111 d
b1000 ?"
b110000000010011 .
b110000000010011 L
b110000000010011 ""
b110000000010011 g#
b11 f#
b10 B"
b0 3"
1?
b1001 2
b1001 O"
b1001 \#
b1000000 #
b1000000 (
b1000000 0
b1000000 Y
b1000000 /"
b1000000 d"
b1000000 q"
b1000000 {"
b1000000 "#
b1000000 /#
b1000000 9#
b1000000 `#
b1 D"
b1 :
b1 I"
b1 Z#
b1 <
b1 H"
b1 X#
b100 A"
b100 J"
b100 R#
b1110 {
b110 @"
b111000000000100 M
b111000000000100 8"
b1000 z
b110 ,
b110 D
b110 >"
1%
#500
0%
#510
b101 i#
b111000000000100 '
b100 j#
#550
0U"
1n
0}
0A
b0 B
b0 ]
b0 e
b0 k
0K
0J
0X"
b0 t
b0 =#
b0 -"
b0 g
b1 '"
0~
b0 W"
b0 T"
b0 Y"
b1000000 v
b1000000 j"
b1000000 o"
b1000000 (#
b1000000 -#
b1000000 @#
b1000000 L#
b1000000000000000 .
b1000000000000000 L
b1000000000000000 ""
b1000000000000000 g#
b100 f#
b1010 ?"
b0 u
b0 >#
b0 P#
b0 O#
b0 |
b0 [
b0 `
b1111 \
b1111 a
b1111 d
b0 +"
b0 b"
b0 V"
b0 S"
b0 q
b0 ["
b0 S#
b1111 3
b1111 N"
b1111 [#
b100 g"
b100 t"
b100 w"
b100 %#
b100 2#
b100 5#
b1000000 ,"
b1000000 A#
b1000000 E#
b1010 z
b1000 ,
b1000 D
b1000 >"
b1000 {
b1000 @"
b1111000000000000 M
b1111000000000000 8"
b10 ."
b10 R"
19"
b10 G"
01"
b0 D"
b0 :
b0 I"
b0 Z#
b0 <
b0 H"
b0 X#
b110 A"
b100 B"
b1 2
b1 O"
b1 \#
b100 #
b100 (
b100 0
b100 Y
b100 /"
b100 d"
b100 q"
b100 {"
b100 "#
b100 /#
b100 9#
b100 `#
b0 4"
b0 G#
1>
b1001 1
b1001 P"
b1001 M#
b1001 ]#
b10 C"
b10 ?#
b1000000 0"
b1000000 C#
1%
#600
0%
#610
b110 i#
b1111000000000000 '
b101 j#
#650
1A
1X
b1 B
b1 ]
b1 e
b1 k
b11 ^
b11 b
b11 f
b100 v
b100 j"
b100 o"
b100 (#
b100 -#
b100 @#
b100 L#
b1100 Z
b1100 _
b1100 c
b1100 h
b100101110000000 g
b100 ,"
b100 A#
b100 E#
b0 g"
b0 t"
b0 w"
b0 %#
b0 2#
b0 5#
b0 3
b0 N"
b0 [#
b1000 \
b1000 a
b1000 d
b1100 ?"
b100000100001011 .
b100000100001011 L
b100000100001011 ""
b100000100001011 g#
b101 f#
b1 1
b1 P"
b1 M#
b1 ]#
b100 C"
b100 ?#
b100 0"
b100 C#
b110 B"
1:"
b1 3"
b1111 2
b1111 O"
b1111 \#
b0 #
b0 (
b0 0
b0 Y
b0 /"
b0 d"
b0 q"
b0 {"
b0 "#
b0 /#
b0 9#
b0 `#
09"
b0 G"
0@
b1000 A"
b0 J"
b0 R#
b1010 {
b1010 @"
b1000000000000000 M
b1000000000000000 8"
b1100 z
b1010 ,
b1010 D
b1010 >"
1%
#700
0%
#710
b111 i#
b1000000000000000 '
b110 j#
#750
1R
17
19
1U#
0i
b110 Z
b110 _
b110 c
b110 h
b0 )"
b0 |"
0A
0X
b0 B
b0 ]
b0 e
b0 k
b1 ^
b1 b
b1 f
1W
1U
1X"
b0 p
b0 }"
b0 H#
b0 =
b0 l
b0 W#
b0 E"
b0 J#
b100 ("
b100 :#
b10110 t
b10110 =#
b1011 -"
b11000010 g
b1111111111111111 W"
b0 T"
b11111100000000 .
b11111100000000 L
b11111100000000 ""
b11111100000000 g#
b110 f#
b1110 ?"
b1 $"
b100 o
b100 ;#
b100 I#
b1 ;
b1 m
b1 Y#
b1 x
b1 K#
b1 y
b1011 u
b1011 >#
b1011 P#
b1011 O#
b1000010110 |
b1011 [
b1011 `
b100 \
b100 a
b100 d
b10000000000000000 V"
b110 v
b110 j"
b110 o"
b110 (#
b110 -#
b110 @#
b110 L#
b0 ,"
b0 A#
b0 E#
b1110 z
b1100 ,
b1100 D
b1100 >"
b100010 {
b1100 @"
b100000100001011 M
b100000100001011 8"
b1100 ."
b1100 R"
b1 G"
11"
1@
b1010 A"
b1000 B"
0:"
0?
b0 2
b0 O"
b0 \#
1;"
b1 4"
b1 G#
b1111 1
b1111 P"
b1111 M#
b1111 ]#
b110 C"
b110 ?#
b0 0"
b0 C#
1%
#800
0%
#810
b1000 i#
b100000100001011 '
b111 j#
#850
0R
07
09
0X"
0U"
0U#
16#
1x"
b0 W"
b0 T"
b0 v
b0 j"
b0 o"
b0 (#
b0 -#
b0 @#
b0 L#
1Q
b10 N
b10 %"
b10 $#
b10 _#
b10 P
b10 &"
b10 f"
b10 ^#
b0 V"
0;"
0>
b0 1
b0 P"
b0 M#
b0 ]#
b1000 C"
b1000 ?#
b1010 B"
1?
b0 ."
b0 R"
b0 G"
01"
0@
b0 A"
1%
#900
0%
#910
b1001 i#
b100000100001011 '
b1000 j#
#950
1~
1U"
b1000000 )"
b1000000 |"
b100 Y"
b10 Z
b10 _
b10 c
b10 h
b1000000 p
b1000000 }"
b1000000 H#
b1001 =
b1001 l
b1001 W#
b1001 E"
b1001 J#
0*"
b100 S"
b100 q
b100 ["
b100 S#
1E
1X
b0 ^
b0 b
b0 f
0W
1I
0U
1X"
b10 '"
0n
b1111111111111100 +"
b1111111111111100 b"
b100 r
b100 '#
b100 7#
b100 Q#
b110 ("
b110 :#
b0 t
b0 =#
b0 -"
b10100000000100 g
b1111111111111011 W"
b1111111111111100 T"
06#
1s"
1m"
0x"
b11000100000010 .
b11000100000010 L
b11000100000010 ""
b11000100000010 g#
b111 f#
b10000 ?"
b1111 $"
b110 o
b110 ;#
b110 I#
b1111 ;
b1111 m
b1111 Y#
b1111 x
b1111 K#
b1111 y
b0 u
b0 >#
b0 P#
b0 O#
b1111000000000 |
b0 [
b0 `
b11 \
b11 a
b11 d
b1111111111111100 V"
b100 &#
b100 ,#
b100 4#
0Q
b0 N
b0 %"
b0 $#
b0 _#
b1 P
b1 &"
b1 f"
b1 ^#
b10000 z
b1110 ,
b1110 D
b1110 >"
b1110 {
b1110 @"
b11111100000000 M
b11111100000000 8"
b110 ."
b110 R"
b1 D"
b1 :
b1 I"
b1 Z#
b1100 A"
b1011 J"
b1011 R#
b100 L"
b100 !#
b100 *#
b0 B"
0?
1>
b1010 C"
b1010 ?#
1%
#1000
0%
#1010
b1010 i#
b11111100000000 '
b1001 j#
#1050
0~
0U"
0n
b0 '"
0}
b1000000 Q"
b1000000 s
b1000000 ]"
b1000000 i"
b1000000 y"
0X"
b1000000 +"
b1000000 b"
b1111111111111100 g"
b1111111111111100 t"
b1111111111111100 w"
b1000000 h"
b1000000 n"
b1000000 v"
b0 W"
b1000000 T"
b0 Y"
0s"
0m"
b110 r
b110 '#
b110 7#
b110 Q#
b100 ("
b100 :#
b100 t
b100 =#
b10 -"
b1111111111111100 %#
b1111111111111100 2#
b1111111111111100 5#
b1000000 V"
b0 S"
b0 q
b0 ["
b0 S#
b0 P
b0 &"
b0 f"
b0 ^#
b110 &#
b110 ,#
b110 4#
b1 $"
b100 o
b100 ;#
b100 I#
b1 ;
b1 m
b1 Y#
b1 x
b1 K#
b1 y
b10 u
b10 >#
b10 P#
b10 O#
b1000000100 |
b10 [
b10 `
b10010 ?"
b1100100000100 .
b1100100000100 L
b1100100000100 ""
b1100100000100 g#
b1000 f#
0>
b0 C"
b0 ?#
b1100 B"
b10 3"
b100 !
b100 *
b100 4
b100 M"
b100 b#
b1111111111111100 #
b1111111111111100 (
b1111111111111100 0
b1111111111111100 Y
b1111111111111100 /"
b1111111111111100 d"
b1111111111111100 q"
b1111111111111100 {"
b1111111111111100 "#
b1111111111111100 /#
b1111111111111100 9#
b1111111111111100 `#
b10 ."
b10 R"
11"
1="
b1111 D"
b1111 :
b1111 I"
b1111 Z#
b1001 <
b1001 H"
b1001 X#
b1110 A"
b0 J"
b0 R#
b110 L"
b110 !#
b110 *#
b1000000 K"
b1000000 c"
b1000000 l"
b10100 {
b10000 @"
b11000100000010 M
b11000100000010 8"
b10010 z
b10000 ,
b10000 D
b10000 >"
1%
#1100
0%
#1110
b1011 i#
b11000100000010 '
b1010 j#
#1150
1A
0E
b1 B
b1 ]
b1 e
b1 k
0I
b1000010 +"
b1000010 b"
b1000010 T"
17
19
b1000000 ("
b1000000 :#
b1000 t
b1000 =#
b100 -"
b100101000000000 g
b10 Y"
b1000010 V"
b10 W"
b100 r
b100 '#
b100 7#
b100 Q#
18
16
15
1)
b1111111111111100 v
b1111111111111100 j"
b1111111111111100 o"
b1111111111111100 (#
b1111111111111100 -#
b1111111111111100 @#
b1111111111111100 L#
b1000111111111 .
b1000111111111 L
b1000111111111 ""
b1000111111111 g#
b1001 f#
b10100 ?"
b1001 $"
b1000000 o
b1000000 ;#
b1000000 I#
b1001 ;
b1001 m
b1001 Y#
b1001 x
b1001 K#
b1001 y
b100 u
b100 >#
b100 P#
b100 O#
b1001000001000 |
b100 [
b100 `
b1 \
b1 a
b1 d
b10000000 `"
b10 S"
b10 q
b10 ["
b10 S#
b100 &#
b100 ,#
b100 4#
b1000000 g"
b1000000 t"
b1000000 w"
b1000000 %#
b1000000 2#
b1000000 5#
b1111111111111100 ,"
b1111111111111100 A#
b1111111111111100 E#
b10100 z
b10010 ,
b10010 D
b10010 >"
b11010 {
b10010 @"
b1100100000100 M
b1100100000100 8"
b1 D"
b1 :
b1 I"
b1 Z#
b10000 A"
b10 J"
b10 R#
b100 L"
b100 !#
b100 *#
b1110 B"
b0 3"
1"
b110 !
b110 *
b110 4
b110 M"
b110 b#
b1000000 #
b1000000 (
b1000000 0
b1000000 Y
b1000000 /"
b1000000 d"
b1000000 q"
b1000000 {"
b1000000 "#
b1000000 /#
b1000000 9#
b1000000 `#
b10 4"
b10 G#
b1100 C"
b1100 ?#
b1111111111111100 0"
b1111111111111100 C#
1%
#1200
0%
#1210
b1100 i#
b1100100000100 '
b1011 j#
#1250
b1 d#
1%
#1300
0%
#1310
b1101 i#
b1100100000100 '
b1100 j#
