hy-pipe/tb_computer.vcd
$date
	Sun May  3 16:41:18 2026
$end
$version
	Icarus Verilog
$end
$timescale
	100ps
$end
$scope module tb_computer $end
$var wire 16 ! writedata [15:0] $end
$var wire 1 " memwrite $end
$var wire 16 # dataaddr [15:0] $end
$var reg 1 $ Exception_Flag $end
$var reg 1 % clk $end
$var reg 1 & reset $end
$scope function instr_name $end
$var reg 16 ' instr [15:0] $end
$upscope $end
$scope module dut $end
$var wire 1 $ Exception_Flag $end
$var wire 1 % clk $end
$var wire 16 ( dataaddr [15:0] $end
$var wire 1 & reset $end
$var wire 16 ) writedata [15:0] $end
$var wire 16 * readdataM [15:0] $end
$var wire 16 + pcF [15:0] $end
$var wire 1 " memwrite $end
$var wire 16 , instrF [15:0] $end
$var wire 16 - aluoutM [15:0] $end
$scope module cpuUnit $end
$var wire 1 $ Exception_Flag $end
$var wire 1 % clk $end
$var wire 1 & reset $end
$var wire 1 . stallE $end
$var wire 1 / stallM $end
$var wire 1 0 stallW $end
$var wire 4 1 writeregW [3:0] $end
$var wire 4 2 writeregM [3:0] $end
$var wire 4 3 writeregE [3:0] $end
$var wire 16 4 writedataM [15:0] $end
$var wire 1 5 stallF $end
$var wire 1 6 stallD $end
$var wire 4 7 rtE [3:0] $end
$var wire 4 8 rtD [3:0] $end
$var wire 4 9 rsE [3:0] $end
$var wire 4 : rsD [3:0] $end
$var wire 1 ; regwriteW $end
$var wire 1 < regwriteM $end
$var wire 1 = regwriteE $end
$var wire 1 > regwriteD $end
$var wire 2 ? regdstD [1:0] $end
$var wire 16 @ readdataM [15:0] $end
$var wire 16 A pcF [15:0] $end
$var wire 1 " memwriteM $end
$var wire 1 B memwriteD $end
$var wire 1 C memtoregM $end
$var wire 1 D memtoregE $end
$var wire 1 E memtoregD $end
$var wire 1 F membaseD $end
$var wire 1 G jumplinkD $end
$var wire 1 H jumpD $end
$var wire 16 I instrF [15:0] $end
$var wire 16 J instrD [15:0] $end
$var wire 2 K forwardbE [1:0] $end
$var wire 1 L forwardbD $end
$var wire 2 M forwardaE [1:0] $end
$var wire 1 N forwardaD $end
$var wire 1 O flushE $end
$var wire 1 P flushD $end
$var wire 1 Q flagwriteD $end
$var wire 1 R branchsrcD $end
$var wire 1 S branchneD $end
$var wire 1 T branchD $end
$var wire 1 U alusrcD $end
$var wire 16 V aluoutM [15:0] $end
$var wire 4 W alucontrolD [3:0] $end
$scope module ctrl $end
$var wire 4 X funct [3:0] $end
$var wire 4 Y op [3:0] $end
$var wire 1 > regWrite $end
$var wire 2 Z regDst [1:0] $end
$var wire 1 B memWrite $end
$var wire 1 E memToReg $end
$var wire 1 F memBase $end
$var wire 1 G jumpLink $end
$var wire 1 H jump $end
$var wire 1 Q flagWrite $end
$var wire 1 R branchSrc $end
$var wire 1 S branchNe $end
$var wire 1 T branch $end
$var wire 1 U aluSrc $end
$var wire 2 [ aluOP [1:0] $end
$var wire 4 \ aluCTRL [3:0] $end
$scope module ad $end
$var wire 4 ] funct [3:0] $end
$var wire 2 ^ aluOP [1:0] $end
$var reg 4 _ aluCTRL [3:0] $end
$upscope $end
$scope module md $end
$var wire 4 ` op [3:0] $end
$var wire 1 > regWrite $end
$var wire 2 a regDst [1:0] $end
$var wire 1 B memWrite $end
$var wire 1 E memToReg $end
$var wire 1 F memBase $end
$var wire 1 G jumpLink $end
$var wire 1 H jump $end
$var wire 1 Q flagWrite $end
$var wire 1 R branchSrc $end
$var wire 1 S branchNe $end
$var wire 1 T branch $end
$var wire 1 U aluSrc $end
$var wire 2 b aluOP [1:0] $end
$var reg 15 c controls [14:0] $end
$upscope $end
$upscope $end
$scope module dp $end
$var wire 1 $ Exception_Flag $end
$var wire 4 d alucontrolD [3:0] $end
$var wire 1 U alusrcD $end
$var wire 1 T branchD $end
$var wire 1 S branchneD $end
$var wire 1 R branchsrcD $end
$var wire 1 % clk $end
$var wire 1 Q flagwriteD $end
$var wire 1 H jumpD $end
$var wire 1 G jumplinkD $end
$var wire 1 F membaseD $end
$var wire 1 E memtoregD $end
$var wire 1 B memwriteD $end
$var wire 1 e pcSrcD $end
$var wire 1 f pcSrcNeD $end
$var wire 2 g regdstD [1:0] $end
$var wire 1 > regwriteD $end
$var wire 1 & reset $end
$var wire 4 h rsD [3:0] $end
$var wire 4 i rtD [3:0] $end
$var wire 1 . stallE $end
$var wire 1 / stallM $end
$var wire 1 0 stallW $end
$var wire 1 j zeroE $end
$var wire 1 5 stallF $end
$var wire 1 6 stallD $end
$var wire 16 k srcbD [15:0] $end
$var wire 16 l srcaD [15:0] $end
$var wire 16 m srcB3E [15:0] $end
$var wire 16 n srcB2E [15:0] $end
$var wire 16 o srcA2E [15:0] $end
$var wire 16 p signImmShD [15:0] $end
$var wire 16 q signImmD [15:0] $end
$var wire 16 r resultW [15:0] $end
$var wire 16 s readdataM [15:0] $end
$var wire 4 t readReg2D [3:0] $end
$var wire 4 u rdD [3:0] $end
$var wire 16 v pcPlus2F [15:0] $end
$var wire 16 w pcNextBrFD [15:0] $end
$var wire 16 x pcJumpFD [15:0] $end
$var wire 1 y overflowE $end
$var wire 1 z negativeE $end
$var wire 16 { instrF [15:0] $end
$var wire 4 | instrD_rs [3:0] $end
$var wire 4 } instrD_rd [3:0] $end
$var wire 2 ~ forwardbE [1:0] $end
$var wire 1 L forwardbD $end
$var wire 2 !" forwardaE [1:0] $end
$var wire 1 N forwardaD $end
$var wire 1 O flushE $end
$var wire 1 P flushD $end
$var wire 16 "" flagsdataE [15:0] $end
$var wire 16 #" comparbD [15:0] $end
$var wire 16 $" comparaD [15:0] $end
$var wire 1 %" carryE $end
$var wire 16 &" aluoutE [15:0] $end
$var wire 16 '" aluOrMemW [15:0] $end
$var reg 4 (" alucontrolE [3:0] $end
$var reg 16 )" aluoutM [15:0] $end
$var reg 16 *" aluoutW [15:0] $end
$var reg 1 +" alusrcE $end
$var reg 16 ," epc [15:0] $end
$var reg 16 -" flagsdataM [15:0] $end
$var reg 16 ." flagsdataW [15:0] $end
$var reg 1 /" flagwriteE $end
$var reg 1 0" flagwriteM $end
$var reg 1 1" flagwriteW $end
$var reg 16 2" instrD [15:0] $end
$var reg 1 3" jumplinkE $end
$var reg 1 4" jumplinkM $end
$var reg 1 5" jumplinkW $end
$var reg 1 D memtoregE $end
$var reg 1 C memtoregM $end
$var reg 1 6" memtoregW $end
$var reg 1 7" memwriteE $end
$var reg 1 " memwriteM_out $end
$var reg 16 8" pcF [15:0] $end
$var reg 16 9" pcNextFD [15:0] $end
$var reg 16 :" pcPlus2D [15:0] $end
$var reg 16 ;" pcPlus2E [15:0] $end
$var reg 16 <" pcPlus2M [15:0] $end
$var reg 16 =" pcPlus2W [15:0] $end
$var reg 4 >" rdE [3:0] $end
$var reg 4 ?" readReg1D [3:0] $end
$var reg 16 @" readdataW [15:0] $end
$var reg 2 A" regdstE [1:0] $end
$var reg 1 = regwriteE $end
$var reg 1 < regwriteM $end
$var reg 1 ; regwriteW $end
$var reg 4 B" rsE [3:0] $end
$var reg 4 C" rtE [3:0] $end
$var reg 16 D" signImmE [15:0] $end
$var reg 16 E" srcaE [15:0] $end
$var reg 16 F" srcbE [15:0] $end
$var reg 16 G" writedataM [15:0] $end
$var reg 4 H" writeregE [3:0] $end
$var reg 4 I" writeregM [3:0] $end
$var reg 4 J" writeregW [3:0] $end
$scope module aluUnit $end
$var wire 16 K" aSigned [15:0] $end
$var wire 4 L" aluCTRL [3:0] $end
$var wire 16 M" bSigned [15:0] $end
$var wire 1 % clk $end
$var wire 1 j zero $end
$var wire 16 N" sumSlt [15:0] $end
$var wire 1 O" sumSign $end
$var wire 1 z negative $end
$var wire 17 P" fullSum [16:0] $end
$var wire 16 Q" condinvb [15:0] $end
$var wire 1 %" carry $end
$var wire 1 R" bSign $end
$var wire 4 S" bShiftAmt [3:0] $end
$var wire 1 T" bSg $end
$var wire 16 U" b [15:0] $end
$var wire 1 V" aSign $end
$var wire 16 W" a [15:0] $end
$var wire 16 X" HiLo_lo [15:0] $end
$var wire 16 Y" HiLo_hi [15:0] $end
$var wire 32 Z" HiLoSigned [31:0] $end
$var reg 32 [" HiLo [31:0] $end
$var reg 1 y overflow $end
$var reg 16 \" result [15:0] $end
$upscope $end
$scope module fwdaEmux $end
$var wire 16 ]" d0 [15:0] $end
$var wire 16 ^" d2 [15:0] $end
$var wire 16 _" d3 [15:0] $end
$var wire 2 `" s [1:0] $end
$var wire 16 a" result_23 [15:0] $end
$var wire 16 b" result_01 [15:0] $end
$var wire 16 c" data_out [15:0] $end
$var wire 16 d" d1 [15:0] $end
$var parameter 32 e" n $end
$scope module u1 $end
$var wire 16 f" d0 [15:0] $end
$var wire 1 g" s $end
$var wire 16 h" data_out [15:0] $end
$var wire 16 i" d1 [15:0] $end
$var parameter 32 j" n $end
$upscope $end
$scope module u2 $end
$var wire 16 k" d0 [15:0] $end
$var wire 16 l" d1 [15:0] $end
$var wire 1 m" s $end
$var wire 16 n" data_out [15:0] $end
$var parameter 32 o" n $end
$upscope $end
$scope module u3 $end
$var wire 16 p" d0 [15:0] $end
$var wire 16 q" d1 [15:0] $end
$var wire 1 r" s $end
$var wire 16 s" data_out [15:0] $end
$var parameter 32 t" n $end
$upscope $end
$upscope $end
$scope module fwdadmux $end
$var wire 16 u" d1 [15:0] $end
$var wire 1 N s $end
$var wire 16 v" data_out [15:0] $end
$var wire 16 w" d0 [15:0] $end
$var parameter 32 x" n $end
$upscope $end
$scope module fwdbEmux $end
$var wire 16 y" d0 [15:0] $end
$var wire 16 z" d2 [15:0] $end
$var wire 16 {" d3 [15:0] $end
$var wire 2 |" s [1:0] $end
$var wire 16 }" result_23 [15:0] $end
$var wire 16 ~" result_01 [15:0] $end
$var wire 16 !# data_out [15:0] $end
$var wire 16 "# d1 [15:0] $end
$var parameter 32 ## n $end
$scope module u1 $end
$var wire 16 $# d0 [15:0] $end
$var wire 1 %# s $end
$var wire 16 &# data_out [15:0] $end
$var wire 16 '# d1 [15:0] $end
$var parameter 32 (# n $end
$upscope $end
$scope module u2 $end
$var wire 16 )# d0 [15:0] $end
$var wire 16 *# d1 [15:0] $end
$var wire 1 +# s $end
$var wire 16 ,# data_out [15:0] $end
$var parameter 32 -# n $end
$upscope $end
$scope module u3 $end
$var wire 16 .# d0 [15:0] $end
$var wire 16 /# d1 [15:0] $end
$var wire 1 0# s $end
$var wire 16 1# data_out [15:0] $end
$var parameter 32 2# n $end
$upscope $end
$upscope $end
$scope module fwdbdmux $end
$var wire 16 3# d1 [15:0] $end
$var wire 1 L s $end
$var wire 16 4# data_out [15:0] $end
$var wire 16 5# d0 [15:0] $end
$var parameter 32 6# n $end
$upscope $end
$scope module immsh $end
$var wire 16 7# Y [15:0] $end
$var wire 16 8# A [15:0] $end
$upscope $end
$scope module jalMux $end
$var wire 16 9# d1 [15:0] $end
$var wire 1 5" s $end
$var wire 16 :# data_out [15:0] $end
$var wire 16 ;# d0 [15:0] $end
$var parameter 32 <# n $end
$upscope $end
$scope module resMux $end
$var wire 16 =# d0 [15:0] $end
$var wire 16 ># d1 [15:0] $end
$var wire 1 6" s $end
$var wire 16 ?# data_out [15:0] $end
$var parameter 32 @# n $end
$upscope $end
$scope module rf $end
$var wire 1 % clk $end
$var wire 1 1" flagWrite $end
$var wire 16 A# flagsData [15:0] $end
$var wire 16 B# readData1 [15:0] $end
$var wire 16 C# readData2 [15:0] $end
$var wire 4 D# readReg1 [3:0] $end
$var wire 4 E# readReg2 [3:0] $end
$var wire 16 F# writeData [15:0] $end
$var wire 1 ; writeEnable $end
$var wire 4 G# writeReg [3:0] $end
$var integer 32 H# i [31:0] $end
$upscope $end
$scope module se $end
$var wire 8 I# A [7:0] $end
$var wire 16 J# Y [15:0] $end
$upscope $end
$scope module srcBmux $end
$var wire 16 K# d0 [15:0] $end
$var wire 16 L# d1 [15:0] $end
$var wire 1 +" s $end
$var wire 16 M# data_out [15:0] $end
$var parameter 32 N# n $end
$upscope $end
$upscope $end
$scope module hu $end
$var wire 1 $ Exception_Flag $end
$var wire 1 T branchD $end
$var wire 1 S branchneD $end
$var wire 1 O# branchstall $end
$var wire 1 P flushD $end
$var wire 1 O flushE $end
$var wire 1 P# lwstall $end
$var wire 1 D memtoregE $end
$var wire 1 C memtoregM $end
$var wire 1 = regwriteE $end
$var wire 1 < regwriteM $end
$var wire 1 ; regwriteW $end
$var wire 4 Q# rsD [3:0] $end
$var wire 4 R# rsE [3:0] $end
$var wire 4 S# rtD [3:0] $end
$var wire 4 T# rtE [3:0] $end
$var wire 1 6 stallD $end
$var wire 1 . stallE $end
$var wire 1 5 stallF $end
$var wire 1 / stallM $end
$var wire 1 0 stallW $end
$var wire 4 U# writeregE [3:0] $end
$var wire 4 V# writeregM [3:0] $end
$var wire 4 W# writeregW [3:0] $end
$var reg 1 N forwardaD $end
$var reg 2 X# forwardaE [1:0] $end
$var reg 1 L forwardbD $end
$var reg 2 Y# forwardbE [1:0] $end
$upscope $end
$upscope $end
$scope module dmemUnit $end
$var wire 16 Z# address [15:0] $end
$var wire 1 % clk $end
$var wire 1 " memWrite $end
$var wire 16 [# readData [15:0] $end
$var wire 16 \# writeData [15:0] $end
$var integer 32 ]# i [31:0] $end
$upscope $end
$scope module imemUnit $end
$var wire 6 ^# address [5:0] $end
$var wire 16 _# readData [15:0] $end
$upscope $end
$upscope $end
$scope begin $ivl_for_loop0 $end
$var integer 32 `# cycle [31:0] $end
$upscope $end
$scope task print_header $end
$upscope $end
$scope task print_row $end
$var integer 32 a# cycle [31:0] $end
$upscope $end
$upscope $end
$enddefinitions $end
$comment Show the parameter values. $end
$dumpall
b10000 N#
b10000 @#
b10000 <#
b10000 6#
b10000 2#
b10000 -#
b10000 (#
b10000 ##
b10000 x"
b10000 t"
b10000 o"
b10000 j"
b10000 e"
$end
#0
$dumpvars
b0 a#
b0 `#
b1000000000000011 _#
b0 ^#
b1000000 ]#
b0 \#
b0 [#
b0 Z#
b0 Y#
b0 X#
b0 W#
b0 V#
b0 U#
b0 T#
b0 S#
b0 R#
b0 Q#
0P#
0O#
b0 M#
b0 L#
b0 K#
b0 J#
b0 I#
b10000 H#
b0 G#
b0 F#
b0 E#
b0 D#
b0 C#
b0 B#
b0 A#
b0 ?#
b0 >#
b0 =#
b0 ;#
b0 :#
b0 9#
b0 8#
b0 7#
b0 5#
b0 4#
b0 3#
b0 1#
00#
b0 /#
b0 .#
b0 ,#
0+#
b0 *#
b0 )#
b0 '#
b0 &#
0%#
b0 $#
b0 "#
b0 !#
b0 ~"
b0 }"
b0 |"
b0 {"
b0 z"
b0 y"
b0 w"
b0 v"
b0 u"
b0 s"
0r"
b0 q"
b0 p"
b0 n"
0m"
b0 l"
b0 k"
b0 i"
b0 h"
0g"
b0 f"
b0 d"
b0 c"
b0 b"
b0 a"
b0 `"
b0 _"
b0 ^"
b0 ]"
b0 \"
bx ["
b0 Z"
bx Y"
bx X"
b0 W"
0V"
b0 U"
0T"
b0 S"
0R"
b0 Q"
b0 P"
0O"
b0 N"
b0 M"
b0 L"
b0 K"
b0 J"
b0 I"
b0 H"
b0 G"
b0 F"
b0 E"
b0 D"
b0 C"
b0 B"
b0 A"
b0 @"
b0 ?"
b0 >"
b0 ="
b0 <"
b0 ;"
b0 :"
b10 9"
b0 8"
07"
06"
05"
04"
03"
b0 2"
01"
00"
0/"
b0 ."
b0 -"
b0 ,"
0+"
b0 *"
b0 )"
b0 ("
b0 '"
b0 &"
0%"
b0 $"
b0 #"
b1 ""
b0 !"
b0 ~
b0 }
b0 |
b1000000000000011 {
0z
0y
b0 x
b0 w
b10 v
b0 u
b0 t
b0 s
b0 r
b0 q
b0 p
b0 o
b0 n
b0 m
b0 l
b0 k
1j
b0 i
b0 h
b0 g
0f
0e
b0 d
b100000100000001 c
b10 b
b0 a
b0 `
b0 _
b10 ^
b0 ]
b0 \
b10 [
b0 Z
b0 Y
b0 X
b0 W
b0 V
0U
0T
0S
0R
1Q
0P
0O
xN
b0 M
xL
b0 K
b0 J
b1000000000000011 I
0H
0G
0F
0E
0D
0C
0B
b0 A
b0 @
b0 ?
1>
0=
0<
0;
b0 :
b0 9
b0 8
b0 7
06
05
b0 4
b0 3
b0 2
b0 1
00
0/
0.
b0 -
b1000000000000011 ,
b0 +
b0 *
b0 )
b0 (
bx '
1&
0%
0$
b0 #
0"
b0 !
$end
#50
1%
#100
0%
#150
1%
#160
b1 `#
0&
#200
0%
#210
b10 `#
b0 '
b1 a#
#250
1U
b1 ?
b1 Z
b1 a
b1 g
b11 [
b11 ^
b11 b
0Q
b110 p
b110 7#
b1100 W
b1100 \
b1100 _
b1100 d
b100101110000000 c
b11 q
b11 8#
b11 J#
b11 I#
b110 x
b11 X
b11 ]
b1000 Y
b1000 `
b100 9"
b1000100000101 ,
b1000100000101 I
b1000100000101 {
b1000100000101 _#
b1 ^#
b1 -"
1/"
1=
b1000 w
b10 :"
b1000000000000011 J
b1000000000000011 2"
b100 v
b10 +
b10 A
b10 8"
1%
#300
0%
#310
b11 `#
b1000000000000011 '
b10 a#
#350
b10 W
b10 \
b10 _
b10 d
b0 [
b0 ^
b0 b
1O"
1R"
b1 :
b1 h
b1 Q#
b1 ?"
b1 D#
b1010 p
b1010 7#
b100101000000000 c
b1111111111111101 N"
b11 S"
b1111111111111100 Q"
10#
1r"
b1000100000001 ,
b1000100000001 I
b1000100000001 {
b1000100000001 _#
b10 ^#
b110 9"
b1 }
b1 8
b1 i
b1 S#
b1 t
b1 E#
b1 u
b101 q
b101 8#
b101 J#
b101 I#
b1000001010 x
b101 X
b101 ]
b1 Y
b1 `
b0 ""
0j
b11 &"
b11 \"
b1111111111111101 P"
b11 M"
b11 m
b11 U"
b11 M#
b10 K
b10 ~
b10 |"
b10 Y#
b10 M
b10 !"
b10 `"
b10 X#
b110 v
b100 +
b100 A
b100 8"
b1110 w
b100 :"
b1000100000101 J
b1000100000101 2"
b1100 ("
b1100 L"
0/"
b1 A"
1+"
b10 ;"
b11 D"
b11 L#
10"
1<
b1 ."
b1 A#
1%
#400
0%
#410
b100 `#
b1000100000101 '
b11 a#
#450
0O"
0y
0R"
b0 ""
0z
b101 Q"
b101 N"
00#
0r"
b101 S"
b10 p
b10 7#
b11 a"
b11 n"
b11 q"
b0xx $"
b0xx v"
b11 }"
b11 ,#
b11 /#
b0xx #"
b0xx 4#
b101 &"
b101 \"
b101 P"
b1 3
b1 H"
b1 U#
b0 K
b0 ~
b0 |"
b0 Y#
b0 M
b0 !"
b0 `"
b0 X#
b101 M"
b101 m
b101 U"
b101 M#
b1 q
b1 8#
b1 J#
b1 I#
b1000000010 x
b1 X
b1 ]
b1000 9"
b1000000100000111 ,
b1000000100000111 I
b1000000100000111 {
b1000000100000111 _#
b11 ^#
11"
1;
b10 <"
b0 -"
00"
b11 #
b11 (
b11 -
b11 V
b11 )"
b11 ^"
b11 k"
b11 u"
b11 z"
b11 )#
b11 3#
b11 Z#
b10 ("
b10 L"
b1 >"
b1 7
b1 C"
b1 T#
b1 9
b1 B"
b1 R#
b100 ;"
b101 D"
b101 L#
b1000 w
b110 :"
b1000100000001 J
b1000100000001 2"
b1000 v
b110 +
b110 A
b110 8"
1%
#500
0%
#510
b101 `#
b1000100000001 '
b100 a#
#550
b1100 W
b1100 \
b1100 _
b1100 d
b11 [
b11 ^
b11 b
b110 &"
b110 \"
b110 N"
b101 n
b101 !#
b101 1#
b101 K#
b101 Z"
b101 K"
b101 o
b101 W"
b101 c"
b101 s"
b1110 p
b1110 7#
b100101110000000 c
b1 S"
b110 P"
b1 Q"
10#
1r"
b11 r
b11 d"
b11 i"
b11 "#
b11 '#
b11 :#
b11 F#
b110000000000101 ,
b110000000000101 I
b110000000000101 {
b110000000000101 _#
b100 ^#
b1010 9"
b111 q
b111 8#
b111 J#
b111 I#
b1000001110 x
b111 X
b111 ]
b1000 Y
b1000 `
b1 M"
b1 m
b1 U"
b1 M#
b10 K
b10 ~
b10 |"
b10 Y#
b10 M
b10 !"
b10 `"
b10 X#
b101 a"
b101 n"
b101 q"
b0x0x $"
b0x0x v"
b101 }"
b101 ,#
b101 /#
b0x0x #"
b0x0x 4#
b11 '"
b11 ;#
b11 ?#
b1010 v
b1000 +
b1000 A
b1000 8"
b10110 w
b1000 :"
b1000000100000111 J
b1000000100000111 2"
b110 ;"
b1 D"
b1 L#
b100 <"
b1 2
b1 I"
b1 V#
b101 #
b101 (
b101 -
b101 V
b101 )"
b101 ^"
b101 k"
b101 u"
b101 z"
b101 )#
b101 3#
b101 Z#
b0 ."
b0 A#
01"
b10 ="
b10 9#
b11 *"
b11 =#
1%
#600
0%
#610
b110 `#
b1000000100000111 '
b101 a#
#650
b10 W
b10 \
b10 _
b10 d
1O"
1R"
0>
0U
b0 ?
b0 Z
b0 a
b0 g
b0 [
b0 ^
b0 b
1H
b101 r
b101 d"
b101 i"
b101 "#
b101 '#
b101 :#
b101 F#
b110 K"
b110 o
b110 W"
b110 c"
b110 s"
b110 n
b110 !#
b110 1#
b110 K#
b1111111111111111 N"
b111 S"
b1111111111111000 Q"
b11 l
b11 w"
b11 B#
b0 :
b0 h
b0 Q#
b0 ?"
b0 D#
b1010 p
b1010 7#
b10000 c
b10 K
b10 ~
b10 |"
b10 Y#
b10 M
b10 !"
b10 `"
b10 X#
b101 '"
b101 ;#
b101 ?#
b110 a"
b110 n"
b110 q"
b0x1x $"
b0x1x v"
b110 }"
b110 ,#
b110 /#
b0x1x #"
b0x1x 4#
b111 &"
b111 \"
b1111111111111111 P"
b101010 Z"
b111 M"
b111 m
b111 U"
b111 M#
b0 }
b11 k
b11 5#
b11 C#
b0 8
b0 i
b0 S#
b0 t
b0 E#
b0 u
b101 q
b101 8#
b101 J#
b101 I#
b1010 x
b101 X
b101 ]
b110 Y
b110 `
b1010 9"
b101 ^#
b1 1
b1 J"
b1 G#
b1 W#
b100 ="
b100 9#
b101 *"
b101 =#
b110 <"
b101 !
b101 )
b101 4
b101 G"
b101 \#
b110 #
b110 (
b110 -
b110 V
b110 )"
b110 ^"
b110 k"
b110 u"
b110 z"
b110 )#
b110 3#
b110 Z#
b1100 ("
b1100 L"
b1000 ;"
b111 D"
b111 L#
b10100 w
b1010 :"
b110000000000101 J
b110000000000101 2"
b1100 v
b1010 +
b1010 A
b1010 8"
1%
#700
0%
#710
b111 `#
b110000000000101 '
b110 a#
#750
b0 W
b0 \
b0 _
b0 d
0O"
0y
1>
b10 [
b10 ^
b10 b
0H
1Q
b110 N"
0R"
b0 p
b0 7#
b100000100000001 c
b0 ""
0z
b11 Q"
00#
0r"
b11 S"
b11 K"
b11 o
b11 W"
b11 c"
b11 s"
b11 n
b11 !#
b11 1#
b11 K#
b110 r
b110 d"
b110 i"
b110 "#
b110 '#
b110 :#
b110 F#
b1100 9"
b0 q
b0 8#
b0 J#
b0 I#
b0 x
b0 X
b0 ]
b0 Y
b0 `
b110 &"
b110 \"
b110 P"
b0 3
b0 H"
b0 U#
b0 K
b0 ~
b0 |"
b0 Y#
b0 M
b0 !"
b0 `"
b0 X#
b1001 Z"
b11 M"
b11 m
b11 U"
b11 M#
b11 ~"
b11 &#
b11 .#
b11 b"
b11 h"
b11 p"
b111 a"
b111 n"
b111 q"
b0x11 $"
b0x11 v"
b111 }"
b111 ,#
b111 /#
b0x11 #"
b0x11 4#
b110 '"
b110 ;#
b110 ?#
b1100 w
b1100 :"
b0 J
b0 2"
b10 ("
b10 L"
b0 A"
0+"
0=
b0 >"
b0 7
b0 C"
b0 T#
b0 9
b0 B"
b0 R#
b1010 ;"
b101 D"
b101 L#
b11 F"
b11 y"
b11 $#
b11 E"
b11 ]"
b11 f"
b1000 <"
b110 !
b110 )
b110 4
b110 G"
b110 \#
b111 #
b111 (
b111 -
b111 V
b111 )"
b111 ^"
b111 k"
b111 u"
b111 z"
b111 )#
b111 3#
b111 Z#
b110 ="
b110 9#
b110 *"
b110 =#
1%
#800
0%
#810
b1000 `#
b0 '
b111 a#
#850
0>
b0 [
b0 ^
b0 b
1H
0Q
b111 r
b111 d"
b111 i"
b111 "#
b111 '#
b111 :#
b111 F#
b10110 w
b1010 p
b1010 7#
b10 W
b10 \
b10 _
b10 d
b10000 c
b111 '"
b111 ;#
b111 ?#
b110 a"
b110 n"
b110 q"
b0x1x $"
b0x1x v"
b110 }"
b110 ,#
b110 /#
b0x1x #"
b0x1x 4#
b11 &"
b11 \"
b101 q
b101 8#
b101 J#
b101 I#
b1010 x
b101 X
b101 ]
b110 Y
b110 `
b1010 9"
bx ,
bx I
bx {
bx _#
b110 ^#
b1000 ="
b1000 9#
b111 *"
b111 =#
b1010 <"
0<
b0 2
b0 I"
b0 V#
b11 !
b11 )
b11 4
b11 G"
b11 \#
b110 #
b110 (
b110 -
b110 V
b110 )"
b110 ^"
b110 k"
b110 u"
b110 z"
b110 )#
b110 3#
b110 Z#
b0 ("
b0 L"
1/"
1=
b1100 ;"
b0 D"
b0 L#
b110000000000101 J
b110000000000101 2"
b1110 v
b1100 +
b1100 A
b1100 8"
1%
#900
0%
#910
b1001 `#
b110000000000101 '
b1000 a#
#950
b0 W
b0 \
b0 _
b0 d
1>
b10 [
b10 ^
b10 b
0H
1Q
b0 p
b0 7#
b100000100000001 c
10#
1r"
b110 r
b110 d"
b110 i"
b110 "#
b110 '#
b110 :#
b110 F#
b110000000000101 ,
b110000000000101 I
b110000000000101 {
b110000000000101 _#
b101 ^#
b1100 9"
b0 q
b0 8#
b0 J#
b0 I#
b0 x
b0 X
b0 ]
b0 Y
b0 `
b110 &"
b110 \"
b11 a"
b11 n"
b11 q"
b11 $"
b11 v"
b11 }"
b11 ,#
b11 /#
b11 #"
b11 4#
b10 K
b10 ~
b10 |"
b10 Y#
b10 M
b10 !"
b10 `"
b10 X#
b110 '"
b110 ;#
b110 ?#
b1100 v
b1010 +
b1010 A
b1010 8"
b1110 w
b1110 :"
b0 J
b0 2"
b10 ("
b10 L"
0/"
0=
b101 D"
b101 L#
b1100 <"
10"
1<
b11 #
b11 (
b11 -
b11 V
b11 )"
b11 ^"
b11 k"
b11 u"
b11 z"
b11 )#
b11 3#
b11 Z#
0;
b0 1
b0 J"
b0 G#
b0 W#
b1010 ="
b1010 9#
b110 *"
b110 =#
1%
#1000
0%
#1010
b1010 `#
b0 '
b1001 a#
#1050
b11 S"
b11 Q"
b110 N"
b11 M"
b11 m
b11 U"
b11 M#
0>
b0 [
b0 ^
b0 b
1H
0Q
b11 r
b11 d"
b11 i"
b11 "#
b11 '#
b11 :#
b11 F#
1+#
1%#
00#
1m"
1g"
0r"
b110 P"
b1001 Z"
b11 K"
b11 o
b11 W"
b11 c"
b11 s"
b11 n
b11 !#
b11 1#
b11 K#
b1010 p
b1010 7#
b10 W
b10 \
b10 _
b10 d
b10000 c
b11 '"
b11 ;#
b11 ?#
b1 K
b1 ~
b1 |"
b1 Y#
b1 M
b1 !"
b1 `"
b1 X#
b0 a"
b0 n"
b0 q"
b0x1x $"
b0x1x v"
b0 }"
b0 ,#
b0 /#
b0x1x #"
b0x1x 4#
b11 &"
b11 \"
b101 q
b101 8#
b101 J#
b101 I#
b1010 x
b101 X
b101 ]
b110 Y
b110 `
b1010 9"
bx ,
bx I
bx {
bx _#
b110 ^#
11"
1;
b1100 ="
b1100 9#
b11 *"
b11 =#
00"
0<
b110 #
b110 (
b110 -
b110 V
b110 )"
b110 ^"
b110 k"
b110 u"
b110 z"
b110 )#
b110 3#
b110 Z#
b0 ("
b0 L"
1/"
1=
b1110 ;"
b0 D"
b0 L#
b10110 w
b1100 :"
b110000000000101 J
b110000000000101 2"
b1110 v
b1100 +
b1100 A
b1100 8"
1%
#1100
0%
#1110
b1011 `#
b110000000000101 '
b1010 a#
#1150
b0 W
b0 \
b0 _
b0 d
1>
b10 [
b10 ^
b10 b
0H
1Q
b11 }"
b11 ,#
b11 /#
b11 a"
b11 n"
b11 q"
b0 p
b0 7#
b100000100000001 c
10#
0+#
0%#
1r"
0m"
0g"
b110 r
b110 d"
b110 i"
b110 "#
b110 '#
b110 :#
b110 F#
b110000000000101 ,
b110000000000101 I
b110000000000101 {
b110000000000101 _#
b101 ^#
b1100 9"
b0 q
b0 8#
b0 J#
b0 I#
b0 x
b0 X
b0 ]
b0 Y
b0 `
b110 &"
b110 \"
b11 $"
b11 v"
b11 #"
b11 4#
b10 K
b10 ~
b10 |"
b10 Y#
b10 M
b10 !"
b10 `"
b10 X#
b110 '"
b110 ;#
b110 ?#
b1100 v
b1010 +
b1010 A
b1010 8"
b1110 w
b1110 :"
b0 J
b0 2"
b10 ("
b10 L"
0/"
0=
b1100 ;"
b101 D"
b101 L#
b1110 <"
10"
1<
b11 #
b11 (
b11 -
b11 V
b11 )"
b11 ^"
b11 k"
b11 u"
b11 z"
b11 )#
b11 3#
b11 Z#
01"
0;
b110 *"
b110 =#
1%
#1200
0%
#1210
b1100 `#
b0 '
b1011 a#
