single-cycle-cpu/tb_computer.vcd
$date
	Sat Apr 25 16:13:12 2026
$end
$version
	Icarus Verilog
$end
$timescale
	100ps
$end
$scope module tb_computer $end
$var wire 16 ! writeData [15:0] $end
$var wire 1 " memWrite $end
$var wire 16 # dataAddress [15:0] $end
$var reg 1 $ clk $end
$var reg 1 % reset $end
$scope function instr_name $end
$var reg 16 & instr [15:0] $end
$upscope $end
$scope module dut $end
$var wire 1 $ clk $end
$var wire 1 % reset $end
$var wire 16 ' writeData [15:0] $end
$var wire 16 ( readData [15:0] $end
$var wire 16 ) pc [15:0] $end
$var wire 1 " memWrite $end
$var wire 16 * instr [15:0] $end
$var wire 16 + dataAddress [15:0] $end
$scope module cpuUnit $end
$var wire 1 $ clk $end
$var wire 1 % reset $end
$var wire 1 , zero $end
$var wire 16 - writeData [15:0] $end
$var wire 1 . regWrite $end
$var wire 2 / regDst [1:0] $end
$var wire 16 0 readData [15:0] $end
$var wire 1 1 pcSrc $end
$var wire 16 2 pc [15:0] $end
$var wire 1 " memWrite $end
$var wire 1 3 memToReg $end
$var wire 1 4 memBase $end
$var wire 1 5 jumpLink $end
$var wire 1 6 jump $end
$var wire 16 7 instr [15:0] $end
$var wire 1 8 flagWrite $end
$var wire 1 9 branchSrc $end
$var wire 1 : aluSrc $end
$var wire 16 ; aluOut [15:0] $end
$var wire 4 < aluCTRL [3:0] $end
$scope module ctrl $end
$var wire 4 = funct [3:0] $end
$var wire 4 > opcode [3:0] $end
$var wire 1 1 pcSrc $end
$var wire 1 , zero $end
$var wire 1 . regWrite $end
$var wire 2 ? regDst [1:0] $end
$var wire 1 " memWrite $end
$var wire 1 3 memToReg $end
$var wire 1 4 memBase $end
$var wire 1 5 jumpLink $end
$var wire 1 6 jump $end
$var wire 1 8 flagWrite $end
$var wire 1 9 branchSrc $end
$var wire 1 @ branchNe $end
$var wire 1 A branchEq $end
$var wire 1 : aluSrc $end
$var wire 2 B aluOP [1:0] $end
$var wire 4 C aluCTRL [3:0] $end
$scope module ad $end
$var wire 4 D funct [3:0] $end
$var wire 2 E aluOP [1:0] $end
$var reg 4 F aluCTRL [3:0] $end
$upscope $end
$scope module md $end
$var wire 4 G opcode [3:0] $end
$var wire 1 . regWrite $end
$var wire 2 H regDst [1:0] $end
$var wire 1 " memWrite $end
$var wire 1 3 memToReg $end
$var wire 1 4 memBase $end
$var wire 1 5 jumpLink $end
$var wire 1 6 jump $end
$var wire 1 8 flagWrite $end
$var wire 1 9 branchSrc $end
$var wire 1 @ branchNe $end
$var wire 1 A branchEq $end
$var wire 1 : aluSrc $end
$var wire 2 I aluOP [1:0] $end
$var reg 15 J controls [14:0] $end
$upscope $end
$upscope $end
$scope module dp $end
$var wire 4 K aluCTRL [3:0] $end
$var wire 1 : aluSrc $end
$var wire 1 9 branchSrc $end
$var wire 1 $ clk $end
$var wire 1 8 flagWrite $end
$var wire 1 6 jump $end
$var wire 1 5 jumpLink $end
$var wire 1 4 memBase $end
$var wire 1 3 memToReg $end
$var wire 1 1 pcSrc $end
$var wire 2 L regDst [1:0] $end
$var wire 1 . regWrite $end
$var wire 1 % reset $end
$var wire 16 M writeData [15:0] $end
$var wire 1 , zero $end
$var wire 4 N writeReg [3:0] $end
$var wire 16 O srcB [15:0] $end
$var wire 16 P srcA [15:0] $end
$var wire 16 Q signImmSh [15:0] $end
$var wire 16 R signImm [15:0] $end
$var wire 16 S result [15:0] $end
$var wire 4 T readReg2 [3:0] $end
$var wire 4 U readReg1 [3:0] $end
$var wire 16 V readData2 [15:0] $end
$var wire 16 W readData1 [15:0] $end
$var wire 16 X readData [15:0] $end
$var wire 16 Y pcPlus2 [15:0] $end
$var wire 16 Z pcNextBr [15:0] $end
$var wire 16 [ pcNext [15:0] $end
$var wire 16 \ pcJump [15:0] $end
$var wire 16 ] pcBranch [15:0] $end
$var wire 16 ^ pc [15:0] $end
$var wire 1 _ overflow $end
$var wire 1 ` negative $end
$var wire 16 a instr [15:0] $end
$var wire 16 b flagsData [15:0] $end
$var wire 1 c carry $end
$var wire 16 d aluOut [15:0] $end
$var wire 16 e aluOrMem [15:0] $end
$scope module aluUnit $end
$var wire 16 f a [15:0] $end
$var wire 16 g aSigned [15:0] $end
$var wire 4 h aluCTRL [3:0] $end
$var wire 16 i bSigned [15:0] $end
$var wire 1 $ clk $end
$var wire 1 , zero $end
$var wire 16 j sumSlt [15:0] $end
$var wire 1 k sumSign $end
$var wire 1 ` negative $end
$var wire 17 l fullSum [16:0] $end
$var wire 16 m condinvb [15:0] $end
$var wire 1 c carry $end
$var wire 1 n bSign $end
$var wire 4 o bShiftAmt [3:0] $end
$var wire 1 p bSg $end
$var wire 16 q b [15:0] $end
$var wire 1 r aSign $end
$var wire 16 s HiLo_lo [15:0] $end
$var wire 16 t HiLo_hi [15:0] $end
$var wire 32 u HiLoSigned [31:0] $end
$var reg 32 v HiLo [31:0] $end
$var reg 1 _ overflow $end
$var reg 16 w result [15:0] $end
$upscope $end
$scope module immsh $end
$var wire 16 x Y [15:0] $end
$var wire 16 y A [15:0] $end
$upscope $end
$scope module jalMux $end
$var wire 1 5 s $end
$var wire 16 z data_out [15:0] $end
$var wire 16 { d1 [15:0] $end
$var wire 16 | d0 [15:0] $end
$var parameter 32 } n $end
$upscope $end
$scope module pcAdd2 $end
$var wire 16 ~ B [15:0] $end
$var wire 16 !" Y [15:0] $end
$var wire 16 "" A [15:0] $end
$upscope $end
$scope module pcP1 $end
$var wire 16 #" B [15:0] $end
$var wire 16 $" Y [15:0] $end
$var wire 16 %" A [15:0] $end
$upscope $end
$scope module pcReg $end
$var wire 1 $ clk $end
$var wire 1 % r $end
$var wire 16 &" D [15:0] $end
$var reg 16 '" Q [15:0] $end
$upscope $end
$scope module pcbrmux $end
$var wire 16 (" d0 [15:0] $end
$var wire 16 )" d1 [15:0] $end
$var wire 1 1 s $end
$var wire 16 *" data_out [15:0] $end
$var parameter 32 +" n $end
$upscope $end
$scope module pcmux $end
$var wire 16 ," d0 [15:0] $end
$var wire 16 -" d1 [15:0] $end
$var wire 1 6 s $end
$var wire 16 ." data_out [15:0] $end
$var parameter 32 /" n $end
$upscope $end
$scope module readRegMux $end
$var wire 4 0" d0 [3:0] $end
$var wire 4 1" d1 [3:0] $end
$var wire 4 2" d2 [3:0] $end
$var wire 4 3" d3 [3:0] $end
$var wire 2 4" s [1:0] $end
$var wire 4 5" result_23 [3:0] $end
$var wire 4 6" result_01 [3:0] $end
$var wire 4 7" data_out [3:0] $end
$var parameter 32 8" n $end
$scope module u1 $end
$var wire 4 9" d0 [3:0] $end
$var wire 4 :" d1 [3:0] $end
$var wire 1 ;" s $end
$var wire 4 <" data_out [3:0] $end
$var parameter 32 =" n $end
$upscope $end
$scope module u2 $end
$var wire 4 >" d0 [3:0] $end
$var wire 4 ?" d1 [3:0] $end
$var wire 1 @" s $end
$var wire 4 A" data_out [3:0] $end
$var parameter 32 B" n $end
$upscope $end
$scope module u3 $end
$var wire 4 C" d0 [3:0] $end
$var wire 4 D" d1 [3:0] $end
$var wire 1 E" s $end
$var wire 4 F" data_out [3:0] $end
$var parameter 32 G" n $end
$upscope $end
$upscope $end
$scope module resultMux $end
$var wire 16 H" d0 [15:0] $end
$var wire 1 3 s $end
$var wire 16 I" data_out [15:0] $end
$var wire 16 J" d1 [15:0] $end
$var parameter 32 K" n $end
$upscope $end
$scope module rf $end
$var wire 1 $ clk $end
$var wire 1 8 flagWrite $end
$var wire 16 L" flagsData [15:0] $end
$var wire 16 M" readData1 [15:0] $end
$var wire 16 N" readData2 [15:0] $end
$var wire 4 O" readReg1 [3:0] $end
$var wire 4 P" readReg2 [3:0] $end
$var wire 16 Q" writeData [15:0] $end
$var wire 1 . writeEnable $end
$var wire 4 R" writeReg [3:0] $end
$var integer 32 S" i [31:0] $end
$upscope $end
$scope module se $end
$var wire 8 T" A [7:0] $end
$var wire 16 U" Y [15:0] $end
$upscope $end
$scope module srcBMux $end
$var wire 16 V" d0 [15:0] $end
$var wire 16 W" d1 [15:0] $end
$var wire 1 : s $end
$var wire 16 X" data_out [15:0] $end
$var parameter 32 Y" n $end
$upscope $end
$scope module wrMux $end
$var wire 4 Z" d0 [3:0] $end
$var wire 4 [" d1 [3:0] $end
$var wire 4 \" d2 [3:0] $end
$var wire 4 ]" d3 [3:0] $end
$var wire 2 ^" s [1:0] $end
$var wire 4 _" result_23 [3:0] $end
$var wire 4 `" result_01 [3:0] $end
$var wire 4 a" data_out [3:0] $end
$var parameter 32 b" n $end
$scope module u1 $end
$var wire 4 c" d0 [3:0] $end
$var wire 4 d" d1 [3:0] $end
$var wire 1 e" s $end
$var wire 4 f" data_out [3:0] $end
$var parameter 32 g" n $end
$upscope $end
$scope module u2 $end
$var wire 4 h" d0 [3:0] $end
$var wire 4 i" d1 [3:0] $end
$var wire 1 j" s $end
$var wire 4 k" data_out [3:0] $end
$var parameter 32 l" n $end
$upscope $end
$scope module u3 $end
$var wire 4 m" d0 [3:0] $end
$var wire 4 n" d1 [3:0] $end
$var wire 1 o" s $end
$var wire 4 p" data_out [3:0] $end
$var parameter 32 q" n $end
$upscope $end
$upscope $end
$upscope $end
$upscope $end
$scope module dataMem $end
$var wire 6 r" address [5:0] $end
$var wire 1 $ clk $end
$var wire 1 " memWrite $end
$var wire 16 s" readData [15:0] $end
$var wire 16 t" writeData [15:0] $end
$var integer 32 u" i [31:0] $end
$upscope $end
$scope module instrMem $end
$var wire 6 v" address [5:0] $end
$var wire 16 w" readData [15:0] $end
$upscope $end
$upscope $end
$scope begin $unm_blk_19 $end
$var reg 16 x" oldAluOut [15:0] $end
$var reg 1 y" oldCarry $end
$var reg 16 z" oldInstr [15:0] $end
$var reg 1 {" oldMemWrite $end
$var reg 1 |" oldNegative $end
$var reg 1 }" oldOverflow $end
$var reg 16 ~" oldPC [15:0] $end
$var reg 1 !# oldRegWrite $end
$var reg 16 "# oldResult [15:0] $end
$var reg 16 ## oldSrcA [15:0] $end
$var reg 16 $# oldSrcB [15:0] $end
$var reg 16 %# oldWriteData [15:0] $end
$var reg 4 &# oldWriteReg [3:0] $end
$var reg 1 '# oldZero $end
$var integer 32 (# cycle [31:0] $end
$upscope $end
$scope task print_header $end
$upscope $end
$scope task print_row $end
$var reg 16 )# oldAluOut [15:0] $end
$var reg 1 *# oldCarry $end
$var reg 16 +# oldInstr [15:0] $end
$var reg 1 ,# oldMemWrite $end
$var reg 1 -# oldNegative $end
$var reg 1 .# oldOverflow $end
$var reg 16 /# oldPC [15:0] $end
$var reg 1 0# oldRegWrite $end
$var reg 16 1# oldResult [15:0] $end
$var reg 16 2# oldSrcA [15:0] $end
$var reg 16 3# oldSrcB [15:0] $end
$var reg 16 4# oldWriteData [15:0] $end
$var reg 4 5# oldWriteReg [3:0] $end
$var reg 1 6# oldZero $end
$var integer 32 7# cycle [31:0] $end
$upscope $end
$upscope $end
$enddefinitions $end
$comment Show the parameter values. $end
$dumpall
b100 q"
b100 l"
b100 g"
b100 b"
b10000 Y"
b10000 K"
b100 G"
b100 B"
b100 ="
b100 8"
b10000 /"
b10000 +"
b10000 }
$end
#0
$dumpvars
b0 7#
x6#
bx 5#
bx 4#
bx 3#
bx 2#
bx 1#
x0#
bx /#
x.#
x-#
x,#
bx +#
x*#
bx )#
b0 (#
x'#
bx &#
bx %#
bx $#
bx ##
bx "#
x!#
bx ~"
x}"
x|"
x{"
bx z"
xy"
bx x"
bx w"
bx v"
b1000000 u"
bx t"
bx s"
bx r"
bx p"
xo"
bx n"
bx m"
bx k"
xj"
b0 i"
b1111 h"
bx f"
xe"
bx d"
b0 c"
bx a"
bx `"
bx _"
bx ^"
b0 ]"
b1111 \"
bx ["
b0 Z"
bx X"
bx W"
bx V"
bx U"
bx T"
b10000 S"
bx R"
bx Q"
bx P"
bx O"
bx N"
bx M"
b0xxx L"
bx J"
bx I"
bx H"
bx F"
xE"
b0 D"
bx C"
b0 A"
x@"
b0 ?"
b0 >"
bx <"
x;"
b1001 :"
bx 9"
bx 7"
bx 6"
b0 5"
bx 4"
b0 3"
b0 2"
b1001 1"
bx 0"
bx ."
bx0 -"
bx ,"
bx *"
bx )"
bx ("
bx '"
bx &"
bx %"
bx $"
b10 #"
bx ""
bx !"
bx0 ~
bx |
bx {
bx z
bx y
bx0 x
bx w
bx v
bx u
bx t
bx s
xr
bx q
xp
bx o
xn
bx m
bx l
xk
bx j
bx i
b10 h
bx g
bx f
bx e
bx d
xc
b0xxx b
bx a
x`
0_
bx ^
bx ]
bx0 \
bx [
bx Z
bx Y
bx X
bx W
bx V
bx U
bx T
bx S
bx R
bx0 Q
bx P
bx O
bx N
bx M
bx L
b10 K
bx J
bx I
bx H
bx G
b10 F
bx E
bx D
b10 C
bx B
xA
x@
bx ?
bx >
bx =
b10 <
bx ;
x:
x9
x8
bx 7
x6
x5
x4
x3
bx 2
x1
bx 0
bx /
x.
bx -
x,
bx +
bx *
bx )
bx (
bx '
bx &
1%
0$
bx #
x"
bx !
$end
#50
b1000011 S
b1000011 z
b1000011 Q"
0`
b1000011 e
b1000011 |
b1000011 I"
b0 (
b0 0
b0 X
b0 J"
b0 s"
b11 r"
0k
0c
b0 W
b0 M"
b10 [
b10 &"
b10 ."
b0 b
b0 L"
0,
b1000011 #
b1000011 +
b1000011 ;
b1000011 d
b1000011 w
b1000011 H"
b1000011 j
0n
01
b0 _"
b0 k"
b0 n"
b1 N
b1 R"
b1 a"
b1 p"
b10 Z
b10 *"
b10 ,"
0p
b1000011 l
1e"
1j"
0o"
0;"
0@"
0E"
0r
b100 U
b100 7"
b100 F"
b100 O"
b10001000 ]
b10001000 !"
b10001000 )"
b0 u
b11 o
b1000011 m
1.
0"
03
1:
0A
0@
06
05
b1 /
b1 ?
b1 H
b1 L
b1 ^"
b0 B
b0 E
b0 I
04
b0 4"
09
18
b0 g
b0 P
b0 f
b1 `"
b1 f"
b1 m"
b100 6"
b100 <"
b100 C"
b1000011 i
b1000011 O
b1000011 q
b1000011 X"
b10000110 Q
b10000110 x
b10000110 ~
b100100000100001 J
b1 ["
b1 d"
b0 !
b0 '
b0 -
b0 M
b0 t"
b0 V
b0 N"
b0 V"
b1 T
b1 P"
b100 0"
b100 9"
b1000011 R
b1000011 y
b1000011 U"
b1000011 W"
b1000011 T"
b11 =
b11 D
b1 >
b1 G
b1010000110 \
b1010000110 -"
b1000101000011 *
b1000101000011 7
b1000101000011 a
b1000101000011 w"
b0 v"
b10 Y
b10 {
b10 ""
b10 $"
b10 ("
b0 )
b0 2
b0 ^
b0 %"
b0 '"
1$
#100
0$
#150
b1000011 !
b1000011 '
b1000011 -
b1000011 M
b1000011 t"
b1000011 V
b1000011 N"
b1000011 V"
1$
#160
b1 (#
0%
#170
0}"
0y"
0|"
0'#
b1000011 %#
0{"
b1000011 "#
b1 &#
1!#
b1000011 x"
b1000011 $#
b0 ##
b1000101000011 z"
b0 ~"
#200
0$
#250
b1000101 S
b1000101 z
b1000101 Q"
b1000101 e
b1000101 |
b1000101 I"
b101 r"
b1000101 #
b1000101 +
b1000101 ;
b1000101 d
b1000101 w
b1000101 H"
b1000101 j
b10 N
b10 R"
b10 a"
b10 p"
b101 o
b1000101 l
b1000101 m
b10 `"
b10 f"
b10 m"
b1000101 i
b1000101 O
b1000101 q
b1000101 X"
b10001010 Q
b10001010 x
b10001010 ~
b100 [
b100 &"
b100 ."
b10 ["
b10 d"
b0 !
b0 '
b0 -
b0 M
b0 t"
b0 V
b0 N"
b0 V"
b10 T
b10 P"
b10010001010 \
b10010001010 -"
b1000101 R
b1000101 y
b1000101 U"
b1000101 W"
b1000101 T"
b101 =
b101 D
b100 Z
b100 *"
b100 ,"
b1001001000101 *
b1001001000101 7
b1001001000101 a
b1001001000101 w"
b1 v"
b10001110 ]
b10001110 !"
b10001110 )"
b100 Y
b100 {
b100 ""
b100 $"
b100 ("
b10 )
b10 2
b10 ^
b10 %"
b10 '"
1$
#260
b10 (#
b1000101000011 &
0.#
0*#
0-#
06#
b1000011 4#
0,#
b1000011 1#
b1 5#
10#
b1000011 )#
b1000011 3#
b0 2#
b1000101000011 +#
b0 /#
b1 7#
#270
b0 %#
b1000101 "#
b10 &#
b1000101 x"
b1000101 $#
b1001001000101 z"
b10 ~"
#300
0$
#350
b10001000 S
b10001000 z
b10001000 Q"
b0 N
b0 R"
b0 a"
b0 p"
b10001000 e
b10001000 |
b10001000 I"
b1000 r"
b0 `"
b0 f"
b0 m"
b1111 _"
b1111 k"
b1111 n"
b1001000001111 u
b1000011 g
b1000011 P
b1000011 f
b10001000 #
b10001000 +
b10001000 ;
b10001000 d
b10001000 w
b10001000 H"
b10001000 j
0e"
0j"
b1000011 W
b1000011 M"
b1 U
b1 7"
b1 F"
b1 O"
b101 o
b10001000 l
b1000101 m
0:
b0 /
b0 ?
b0 H
b0 L
b0 ^"
b10 B
b10 E
b10 I
b1 6"
b1 <"
b1 C"
b1000101 i
b1000101 O
b1000101 q
b1000101 X"
b100100 Q
b100100 x
b100100 ~
b100000000010001 J
b110 [
b110 &"
b110 ."
b1 0"
b1 9"
b10000100100 \
b10000100100 -"
b10010 R
b10010 y
b10010 U"
b10010 W"
b10010 T"
b10 =
b10 D
b0 >
b0 G
b110 Z
b110 *"
b110 ,"
b1000010010 *
b1000010010 7
b1000010010 a
b1000010010 w"
b10 v"
b1000101 !
b1000101 '
b1000101 -
b1000101 M
b1000101 t"
b1000101 V
b1000101 N"
b1000101 V"
b101010 ]
b101010 !"
b101010 )"
b110 Y
b110 {
b110 ""
b110 $"
b110 ("
b100 )
b100 2
b100 ^
b100 %"
b100 '"
1$
#360
b11 (#
b1001001000101 &
b0 4#
b1000101 1#
b10 5#
b1000101 )#
b1000101 3#
b1001001000101 +#
b10 /#
b10 7#
#370
b1000101 %#
b10001000 "#
b0 &#
b10001000 x"
b1000011 ##
b1000010010 z"
b100 ~"
#400
0$
#450
x`
bx (
bx 0
bx X
bx J"
bx s"
xr
x1
bx `"
bx f"
bx m"
bx _"
bx k"
bx n"
bx N
bx R"
bx a"
bx p"
xk
xn
bx r"
xc
bx e
bx |
bx I"
bx S
bx z
bx Q"
xe"
xj"
xo"
x;"
x@"
xE"
bx j
bx o
xp
bx m
bx W
bx M"
bx U
bx 7"
bx F"
bx O"
b0xxx b
b0xxx L"
x,
bx #
bx +
bx ;
bx d
bx w
bx H"
x.
x"
x3
x:
xA
x@
x6
x5
bx /
bx ?
bx H
bx L
bx ^"
bx B
bx E
bx I
x4
bx 4"
x9
x8
bx g
bx l
bx P
bx f
bx u
bx i
bx O
bx q
bx X"
bx 6"
bx <"
bx C"
bx0 Q
bx0 x
bx0 ~
b10 <
b10 C
b10 F
b10 K
b10 h
bx J
bx [
bx &"
bx ."
bx ["
bx d"
bx !
bx '
bx -
bx M
bx t"
bx V
bx N"
bx V"
bx T
bx P"
bx 0"
bx 9"
b0xxxxxxxxxxxx0 \
b0xxxxxxxxxxxx0 -"
bx R
bx y
bx U"
bx W"
bx T"
bx =
bx D
bx >
bx G
bx Z
bx *"
bx ,"
bx *
bx 7
bx a
bx w"
b11 v"
bx ]
bx !"
bx )"
b1000 Y
b1000 {
b1000 ""
b1000 $"
b1000 ("
b110 )
b110 2
b110 ^
b110 %"
b110 '"
1$
#460
b100 (#
b1000010010 &
b1000101 4#
b10001000 1#
b0 5#
b10001000 )#
b1000011 2#
b1000010010 +#
b100 /#
b11 7#
#470
xy"
x|"
x'#
bx %#
x{"
bx "#
bx &#
x!#
bx x"
bx $#
bx ##
bx z"
b110 ~"
#500
0$
#550
bx0 \
bx0 -"
bx v"
bx Y
bx {
bx ""
bx $"
bx ("
bx )
bx 2
bx ^
bx %"
bx '"
1$
#560
b101 (#
bx &
x*#
x-#
x6#
bx 4#
x,#
bx 1#
bx 5#
x0#
bx )#
bx 3#
bx 2#
bx +#
b110 /#
b100 7#
#570
bx ~"
#600
0$
#650
1$
#660
b110 (#
bx /#
b101 7#
#700
0$
#750
1$
#760
b111 (#
b110 7#
#800
0$
#850
1$
#860
b1000 (#
b111 7#
#900
0$
#950
1$
#960
b1001 (#
b1000 7#
#1000
0$
#1050
1$
#1060
b1010 (#
b1001 7#
#1100
0$
#1150
1$
#1160
b1011 (#
b1010 7#
#1200
0$
#1250
1$
#1260
b1100 (#
b1011 7#
#1300
0$
#1350
1$
#1360
b1101 (#
b1100 7#
