pipelined_cpu/tb_computer.vcd
$date
	Thu Apr  9 16:19:42 2026
$end
$version
	Icarus Verilog
$end
$timescale
	100ps
$end
$scope module tb_computer $end
$var wire 32 ! writedata [31:0] $end
$var wire 1 " memwrite $end
$var wire 32 # dataadr [31:0] $end
$var reg 1 $ clk $end
$var reg 1 % reset $end
$scope module dut $end
$var wire 1 $ clk $end
$var wire 1 % reset $end
$var wire 32 & writedata [31:0] $end
$var wire 32 ' readdata [31:0] $end
$var wire 32 ( pc [31:0] $end
$var wire 1 " memwrite $end
$var wire 32 ) instr [31:0] $end
$var wire 32 * dataadr [31:0] $end
$scope module dmem $end
$var wire 1 $ clk $end
$var wire 32 + readdata [31:0] $end
$var wire 32 , writedata [31:0] $end
$var wire 1 " write_enable $end
$var wire 32 - addr [31:0] $end
$var parameter 32 . n $end
$var parameter 32 / r $end
$upscope $end
$scope module imem $end
$var wire 6 0 addr [5:0] $end
$var wire 32 1 readdata [31:0] $end
$var parameter 32 2 n $end
$var parameter 32 3 r $end
$scope begin $unm_blk_27 $end
$upscope $end
$upscope $end
$scope module mips_pipelined $end
$var wire 1 $ clk $end
$var wire 32 4 instrF [31:0] $end
$var wire 32 5 readdataM [31:0] $end
$var wire 1 % reset $end
$var wire 5 6 writeregW [4:0] $end
$var wire 5 7 writeregM [4:0] $end
$var wire 5 8 writeregE [4:0] $end
$var wire 32 9 writedataM [31:0] $end
$var wire 1 : stallF $end
$var wire 1 ; stallD $end
$var wire 5 < rtE [4:0] $end
$var wire 5 = rtD [4:0] $end
$var wire 5 > rsE [4:0] $end
$var wire 5 ? rsD [4:0] $end
$var wire 1 @ regwriteW $end
$var wire 1 A regwriteM $end
$var wire 1 B regwriteE $end
$var wire 1 C regwriteD $end
$var wire 1 D regdstD $end
$var wire 32 E pcF [31:0] $end
$var wire 1 " memwriteM $end
$var wire 1 F memwriteD $end
$var wire 1 G memtoregM $end
$var wire 1 H memtoregE $end
$var wire 1 I memtoregD $end
$var wire 1 J jumpD $end
$var wire 32 K instrD [31:0] $end
$var wire 2 L forwardbE [1:0] $end
$var wire 1 M forwardbD $end
$var wire 2 N forwardaE [1:0] $end
$var wire 1 O forwardaD $end
$var wire 1 P flushE $end
$var wire 1 Q branchD $end
$var wire 1 R alusrcD $end
$var wire 32 S aluoutM [31:0] $end
$var wire 3 T alucontrolD [2:0] $end
$scope module c $end
$var wire 6 U functD [5:0] $end
$var wire 6 V opD [5:0] $end
$var wire 1 C regwriteD $end
$var wire 1 D regdstD $end
$var wire 1 F memwriteD $end
$var wire 1 I memtoregD $end
$var wire 1 J jumpD $end
$var wire 1 Q branchD $end
$var wire 1 R alusrcD $end
$var wire 2 W aluopD [1:0] $end
$var wire 3 X alucontrolD [2:0] $end
$scope module ad $end
$var wire 6 Y funct [5:0] $end
$var wire 2 Z aluop [1:0] $end
$var parameter 32 [ n $end
$var reg 3 \ alucontrol [2:0] $end
$upscope $end
$scope module md $end
$var wire 6 ] op [5:0] $end
$var wire 1 C regwrite $end
$var wire 1 D regdst $end
$var wire 1 F memwrite $end
$var wire 1 I memtoreg $end
$var wire 1 J jump $end
$var wire 1 Q branch $end
$var wire 1 R alusrc $end
$var wire 2 ^ aluop [1:0] $end
$var parameter 32 _ n $end
$var reg 9 ` controls [8:0] $end
$upscope $end
$upscope $end
$scope module dp $end
$var wire 3 a alucontrolD [2:0] $end
$var wire 1 R alusrcD $end
$var wire 1 Q branchD $end
$var wire 1 $ clk $end
$var wire 32 b instrF [31:0] $end
$var wire 1 J jumpD $end
$var wire 1 I memtoregD $end
$var wire 1 F memwriteD $end
$var wire 1 c pcsrcD $end
$var wire 32 d readdataM [31:0] $end
$var wire 1 D regdstD $end
$var wire 1 C regwriteD $end
$var wire 1 % reset $end
$var wire 1 e zeroE $end
$var wire 5 f writeregE [4:0] $end
$var wire 1 : stallF $end
$var wire 1 ; stallD $end
$var wire 32 g srcbD [31:0] $end
$var wire 32 h srcb3E [31:0] $end
$var wire 32 i srcb2E [31:0] $end
$var wire 32 j srcaD [31:0] $end
$var wire 32 k srca2E [31:0] $end
$var wire 32 l signimmshD [31:0] $end
$var wire 32 m signimmD [31:0] $end
$var wire 5 n rtD [4:0] $end
$var wire 5 o rsD [4:0] $end
$var wire 32 p resultW [31:0] $end
$var wire 5 q rdD [4:0] $end
$var wire 32 r pcplus4F [31:0] $end
$var wire 32 s pcnextbrFD [31:0] $end
$var wire 32 t pcnextFD [31:0] $end
$var wire 32 u pcbranchD [31:0] $end
$var wire 2 v forwardbE [1:0] $end
$var wire 1 M forwardbD $end
$var wire 2 w forwardaE [1:0] $end
$var wire 1 O forwardaD $end
$var wire 1 P flushE $end
$var wire 1 x equalD $end
$var wire 32 y compbD [31:0] $end
$var wire 32 z compaD [31:0] $end
$var wire 32 { aluoutE [31:0] $end
$var reg 3 | alucontrolE [2:0] $end
$var reg 32 } aluoutM [31:0] $end
$var reg 32 ~ aluoutW [31:0] $end
$var reg 1 !" alusrcE $end
$var reg 32 "" instrD [31:0] $end
$var reg 1 H memtoregE $end
$var reg 1 G memtoregM $end
$var reg 1 #" memtoregW $end
$var reg 1 $" memwriteE $end
$var reg 1 " memwriteM_out $end
$var reg 32 %" pcF [31:0] $end
$var reg 32 &" pcplus4D [31:0] $end
$var reg 5 '" rdE [4:0] $end
$var reg 32 (" readdataW [31:0] $end
$var reg 1 )" regdstE $end
$var reg 1 B regwriteE $end
$var reg 1 A regwriteM $end
$var reg 1 @ regwriteW $end
$var reg 5 *" rsE [4:0] $end
$var reg 5 +" rtE [4:0] $end
$var reg 32 ," signimmE [31:0] $end
$var reg 32 -" srcaE [31:0] $end
$var reg 32 ." srcbE [31:0] $end
$var reg 32 /" writedataM [31:0] $end
$var reg 5 0" writeregM [4:0] $end
$var reg 5 1" writeregW [4:0] $end
$scope module alu $end
$var wire 3 2" alucontrol [2:0] $end
$var wire 1 $ clk $end
$var wire 1 e zero $end
$var wire 32 3" sumSlt [31:0] $end
$var wire 32 4" condinvb [31:0] $end
$var wire 32 5" b [31:0] $end
$var wire 32 6" a [31:0] $end
$var parameter 32 7" n $end
$var reg 64 8" HiLo [63:0] $end
$var reg 32 9" result [31:0] $end
$upscope $end
$scope module comp $end
$var wire 32 :" a [31:0] $end
$var wire 32 ;" b [31:0] $end
$var wire 1 x eq $end
$var parameter 32 <" n $end
$upscope $end
$scope module forwardamux $end
$var wire 32 =" d0 [31:0] $end
$var wire 32 >" d2 [31:0] $end
$var wire 2 ?" s [1:0] $end
$var wire 32 @" d1 [31:0] $end
$var parameter 32 A" n $end
$var reg 32 B" y [31:0] $end
$upscope $end
$scope module forwardbmux $end
$var wire 32 C" d0 [31:0] $end
$var wire 32 D" d2 [31:0] $end
$var wire 2 E" s [1:0] $end
$var wire 32 F" d1 [31:0] $end
$var parameter 32 G" n $end
$var reg 32 H" y [31:0] $end
$upscope $end
$scope module pcbrmux $end
$var wire 32 I" D0 [31:0] $end
$var wire 32 J" D1 [31:0] $end
$var wire 1 c S $end
$var wire 32 K" Y [31:0] $end
$var parameter 32 L" n $end
$upscope $end
$scope module pcmux $end
$var wire 32 M" D0 [31:0] $end
$var wire 32 N" D1 [31:0] $end
$var wire 1 J S $end
$var wire 32 O" Y [31:0] $end
$var parameter 32 P" n $end
$upscope $end
$scope module resmux $end
$var wire 32 Q" D0 [31:0] $end
$var wire 32 R" D1 [31:0] $end
$var wire 1 #" S $end
$var wire 32 S" Y [31:0] $end
$var parameter 32 T" n $end
$upscope $end
$scope module rf $end
$var wire 1 $ clk $end
$var wire 5 U" ra1 [4:0] $end
$var wire 5 V" ra2 [4:0] $end
$var wire 5 W" wa3 [4:0] $end
$var wire 32 X" wd3 [31:0] $end
$var wire 1 @ we3 $end
$var wire 32 Y" rd2 [31:0] $end
$var wire 32 Z" rd1 [31:0] $end
$var integer 32 [" i [31:0] $end
$upscope $end
$scope module se $end
$var wire 16 \" A [15:0] $end
$var wire 32 ]" Y [31:0] $end
$var parameter 32 ^" i $end
$var parameter 32 _" n $end
$upscope $end
$scope module srcbmux $end
$var wire 32 `" D0 [31:0] $end
$var wire 32 a" D1 [31:0] $end
$var wire 1 !" S $end
$var wire 32 b" Y [31:0] $end
$var parameter 32 c" n $end
$upscope $end
$scope module wrmux $end
$var wire 5 d" D0 [4:0] $end
$var wire 5 e" D1 [4:0] $end
$var wire 1 )" S $end
$var wire 5 f" Y [4:0] $end
$var parameter 32 g" n $end
$upscope $end
$upscope $end
$scope module h $end
$var wire 1 Q branchD $end
$var wire 1 h" branchstall $end
$var wire 1 P flushE $end
$var wire 1 O forwardaD $end
$var wire 1 M forwardbD $end
$var wire 1 i" lwstall $end
$var wire 1 H memtoregE $end
$var wire 1 G memtoregM $end
$var wire 1 B regwriteE $end
$var wire 1 A regwriteM $end
$var wire 1 @ regwriteW $end
$var wire 5 j" rsD [4:0] $end
$var wire 5 k" rsE [4:0] $end
$var wire 5 l" rtD [4:0] $end
$var wire 5 m" rtE [4:0] $end
$var wire 1 ; stallD $end
$var wire 1 : stallF $end
$var wire 5 n" writeregE [4:0] $end
$var wire 5 o" writeregM [4:0] $end
$var wire 5 p" writeregW [4:0] $end
$var reg 2 q" forwardaE [1:0] $end
$var reg 2 r" forwardbE [1:0] $end
$upscope $end
$upscope $end
$upscope $end
$upscope $end
$enddefinitions $end
$comment Show the parameter values. $end
$dumpall
b101 g"
b100000 c"
b100000 _"
b10000 ^"
b100000 T"
b100000 P"
b100000 L"
b100000 G"
b100000 A"
b100000 <"
b100000 7"
b100000 _
b100000 [
b110 3
b100000 2
b110 /
b100000 .
$end
#0
$dumpvars
b0 r"
b0 q"
b0 p"
b0 o"
b0 n"
b0 m"
b0 l"
b0 k"
b0 j"
0i"
0h"
b0 f"
b0 e"
b0 d"
b0 b"
b0 a"
b0 `"
b0 ]"
b0 \"
b100000 ["
b0 Z"
b0 Y"
b0 X"
b0 W"
b0 V"
b0 U"
b0 S"
b0 R"
b0 Q"
b100 O"
b0 N"
b100 M"
b100 K"
b0 J"
b100 I"
b0 H"
b0 F"
b0 E"
b0 D"
b0 C"
b0 B"
b0 @"
b0 ?"
b0 >"
b0 ="
b0 ;"
b0 :"
b0 9"
b0 8"
b0 6"
b0 5"
b0 4"
b0 3"
b0 2"
b0 1"
b0 0"
b0 /"
b0 ."
b0 -"
b0 ,"
b0 +"
b0 *"
0)"
b0 ("
b0 '"
b0 &"
b0 %"
0$"
0#"
b0 ""
0!"
b0 ~
b0 }
b0 |
b0 {
b0 z
b0 y
1x
b0 w
b0 v
b0 u
b100 t
b100 s
b100 r
b0 q
b0 p
b0 o
b0 n
b0 m
b0 l
b0 k
b0 j
b0 i
b0 h
b0 g
b0 f
1e
bx d
0c
b100000000010000000000000000101 b
b10 a
b110000010 `
b10 ^
b0 ]
b10 \
b10 Z
b0 Y
b10 X
b10 W
b0 V
b0 U
b10 T
b0 S
0R
0Q
0P
0O
b0 N
0M
b0 L
b0 K
0J
0I
0H
0G
0F
b0 E
1D
1C
0B
0A
0@
b0 ?
b0 >
b0 =
b0 <
0;
0:
b0 9
b0 8
b0 7
b0 6
bx 5
b100000000010000000000000000101 4
b100000000010000000000000000101 1
b0 0
b0 -
b0 ,
bx +
b0 *
b100000000010000000000000000101 )
b0 (
bx '
b0 &
1%
0$
b0 #
0"
b0 !
$end
#50
1$
#100
0$
#150
1$
#200
0$
#220
0%
#250
0D
1R
b0 W
b0 Z
b0 ^
b101000000 `
b10100 l
b101 m
b101 ]"
b1000000000000000010100 N"
b1000 t
b1000 O"
b100000000010010000000000001100 )
b100000000010010000000000001100 1
b100000000010010000000000001100 4
b100000000010010000000000001100 b
b1000 =
b1000 n
b1000 V"
b1000 l"
b101 \"
b101 U
b101 Y
b1000 V
b1000 ]
b1000 s
b1000 K"
b1000 M"
b1 0
bx ("
bx R"
b10 |
b10 2"
1)"
1B
b11000 u
b11000 J"
b100 &"
b100000000010000000000000000101 K
b100000000010000000000000000101 ""
b1000 r
b1000 I"
b100 (
b100 E
b100 %"
1$
#300
0$
#350
b110000 l
b1100 m
b1100 ]"
b1100 t
b1100 O"
b1000010010101000000100000 )
b1000010010101000000100000 1
b1000010010101000000100000 4
b1000010010101000000100000 b
b1001000000000000110000 N"
b101 3"
b101 4"
0e
b101 {
b101 9"
b1100 s
b1100 K"
b1100 M"
b10 0
b1001 =
b1001 n
b1001 V"
b1001 l"
b1100 \"
b1100 U
b1100 Y
b1000 8
b1000 f
b1000 f"
b1000 n"
b101 h
b101 5"
b101 b"
b1100 r
b1100 I"
b1000 (
b1000 E
b1000 %"
b111000 u
b111000 J"
b1000 &"
b100000000010010000000000001100 K
b100000000010010000000000001100 ""
b1000 <
b1000 +"
b1000 d"
b1000 m"
b101 ,"
b101 a"
0)"
1!"
1A
1$
#400
0$
#450
1D
0R
b10 W
b10 Z
b10 ^
b110000010 `
0x
b101 z
b101 :"
b10100000010000000 l
1O
b101000000100000 m
b101000000100000 ]"
b1100 3"
b1100 4"
b1100 {
b1100 9"
b100001001010100000010000000 N"
b10000 t
b10000 O"
b1010010000101100000100010 )
b1010010000101100000100010 1
b1010010000101100000100010 4
b1010010000101100000100010 b
b1001 8
b1001 f
b1001 f"
b1001 n"
b1100 h
b1100 5"
b1100 b"
b1000 ?
b1000 o
b1000 U"
b1000 j"
b1010 q
b101000000100000 \"
b100000 U
b100000 Y
b0 V
b0 ]
b10000 s
b10000 K"
b10000 M"
b11 0
1@
b1000 7
b1000 0"
b1000 o"
b101 #
b101 *
b101 -
b101 S
b101 }
b101 >"
b101 D"
b1001 <
b1001 +"
b1001 d"
b1001 m"
b1100 ,"
b1100 a"
b10100000010001100 u
b10100000010001100 J"
b1100 &"
b1000010010101000000100000 K
b1000010010101000000100000 ""
b10000 r
b10000 I"
b1100 (
b1100 E
b1100 %"
1$
#500
0$
#550
b110 T
b110 X
b110 \
b110 a
b10110000010001000 l
b101100000100010 m
b101100000100010 ]"
1x
b0 y
b0 ;"
b10100 t
b10100 O"
b1011010010110000000100101 )
b1011010010110000000100101 1
b1011010010110000000100101 4
b1011010010110000000100101 b
b101001000010110000010001000 N"
0O
0M
b10001 {
b10001 9"
b10100 s
b10100 K"
b10100 M"
b100 0
b1010 ?
b1010 o
b1010 U"
b1010 j"
b1000 =
b1000 n
b1000 V"
b1000 l"
b1011 q
b101100000100010 \"
b100010 U
b100010 Y
b1010 8
b1010 f
b1010 f"
b1010 n"
b0 z
b0 :"
b10001 3"
b101 k
b101 6"
b101 B"
b1100 i
b1100 H"
b1100 `"
b10 L
b10 v
b10 E"
b10 r"
b1 N
b1 w
b1 ?"
b1 q"
b101 p
b101 @"
b101 F"
b101 S"
b101 X"
b10100 r
b10100 I"
b10000 (
b10000 E
b10000 %"
b10110000010011000 u
b10110000010011000 J"
b10000 &"
b1010010000101100000100010 K
b1010010000101100000100010 ""
b1010 '"
b1010 e"
b1000 >
b1000 *"
b1000 k"
b101000000100000 ,"
b101000000100000 a"
1)"
0!"
b1001 7
b1001 0"
b1001 o"
b1100 #
b1100 *
b1100 -
b1100 S
b1100 }
b1100 >"
b1100 D"
b1000 6
b1000 1"
b1000 W"
b1000 p"
b101 ~
b101 Q"
1$
#600
0x
b101 y
b101 ;"
b101 g
b101 Y"
0$
#650
b1 T
b1 X
b1 \
b1 a
b11000000010010100 l
0e
1x
b0 y
b0 ;"
b0 g
b0 Y"
b110000000100101 m
b110000000100101 ]"
b1100 {
b1100 9"
b101 h
b101 5"
b101 b"
b11111111111111111111111111111010 4"
b101101001011000000010010100 N"
b11000 t
b11000 O"
b10101100000011000000000001010100 )
b10101100000011000000000001010100 1
b10101100000011000000000001010100 4
b10101100000011000000000001010100 b
b1100 p
b1100 @"
b1100 F"
b1100 S"
b1100 X"
b1100 3"
b10001 k
b10001 6"
b10001 B"
b1011 8
b1011 f
b1011 f"
b1011 n"
b0 L
b0 v
b0 E"
b0 r"
b10 N
b10 w
b10 ?"
b10 q"
b101 i
b101 H"
b101 `"
b1011 ?
b1011 o
b1011 U"
b1011 j"
b1001 =
b1001 n
b1001 V"
b1001 l"
b1100 q
b110000000100101 \"
b100101 U
b100101 Y
b11000 s
b11000 K"
b11000 M"
b101 0
b1001 6
b1001 1"
b1001 W"
b1001 p"
b1100 ~
b1100 Q"
b1010 7
b1010 0"
b1010 o"
b1100 !
b1100 &
b1100 ,
b1100 9
b1100 /"
b10001 #
b10001 *
b10001 -
b10001 S
b10001 }
b10001 >"
b10001 D"
b1011 '"
b1011 e"
b1000 <
b1000 +"
b1000 d"
b1000 m"
b1010 >
b1010 *"
b1010 k"
b101100000100010 ,"
b101100000100010 a"
b101 ."
b101 C"
b110 |
b110 2"
b11000000010101000 u
b11000000010101000 J"
b10100 &"
b1011010010110000000100101 K
b1011010010110000000100101 ""
b11000 r
b11000 I"
b10100 (
b10100 E
b10100 %"
1$
#700
0x
b1100 y
b1100 ;"
b1100 g
b1100 Y"
0$
#750
0C
0D
1R
1F
b0 W
b0 Z
b0 ^
b10 T
b10 X
b10 \
b10 a
b1010000 `
b101010000 l
b0 y
b0 ;"
b0 g
b0 Y"
b1010100 m
b1010100 ]"
1x
b0 z
b0 :"
b11100 t
b11100 O"
b10001100000011010000000001010100 )
b10001100000011010000000001010100 1
b10001100000011010000000001010100 4
b10001100000011010000000001010100 b
b1100000000000101010000 N"
b1100 4"
0O
b1100 h
b1100 5"
b1100 b"
b11100 s
b11100 K"
b11100 M"
b110 0
b0 ?
b0 o
b0 U"
b0 j"
b1100 =
b1100 n
b1100 V"
b1100 l"
b0 q
b1010100 \"
b10100 U
b10100 Y
b101011 V
b101011 ]
b1100 8
b1100 f
b1100 f"
b1100 n"
b1100 {
b1100 9"
b11000 3"
b1100 k
b1100 6"
b1100 B"
b1100 i
b1100 H"
b1100 `"
b10 N
b10 w
b10 ?"
b10 q"
b10001 p
b10001 @"
b10001 F"
b10001 S"
b10001 X"
b11100 r
b11100 I"
b11000 (
b11000 E
b11000 %"
b101101000 u
b101101000 J"
b11000 &"
b10101100000011000000000001010100 K
b10101100000011000000000001010100 ""
b1100 '"
b1100 e"
b1001 <
b1001 +"
b1001 d"
b1001 m"
b1011 >
b1011 *"
b1011 k"
b110000000100101 ,"
b110000000100101 a"
b1100 ."
b1100 C"
b1 |
b1 2"
b1011 7
b1011 0"
b1011 o"
b101 !
b101 &
b101 ,
b101 9
b101 /"
b1100 #
b1100 *
b1100 -
b1100 S
b1100 }
b1100 >"
b1100 D"
b1010 6
b1010 1"
b1010 W"
b1010 p"
b10001 ~
b10001 Q"
1$
#800
0$
#850
1C
0F
1I
b101001000 `
b0 k
b0 6"
b0 B"
b1010100 3"
b1010100 4"
b1101000000000101010000 N"
b100000 t
b100000 O"
b1101010010111000000100000 )
b1101010010111000000100000 1
b1101010010111000000100000 4
b1101010010111000000100000 b
b1100 p
b1100 @"
b1100 F"
b1100 S"
b1100 X"
b10 L
b10 v
b10 E"
b10 r"
b0 N
b0 w
b0 ?"
b0 q"
b1100 i
b1100 H"
b1100 `"
b1010100 {
b1010100 9"
b1010100 h
b1010100 5"
b1010100 b"
b1101 =
b1101 n
b1101 V"
b1101 l"
b100011 V
b100011 ]
b100000 s
b100000 K"
b100000 M"
b111 0
b1011 6
b1011 1"
b1011 W"
b1011 p"
b1100 ~
b1100 Q"
b1100 7
b1100 0"
b1100 o"
b1100 !
b1100 &
b1100 ,
b1100 9
b1100 /"
b0 '"
b0 e"
b1100 <
b1100 +"
b1100 d"
b1100 m"
b0 >
b0 *"
b0 k"
b1010100 ,"
b1010100 a"
b0 ."
b0 C"
b10 |
b10 2"
0)"
1!"
1$"
0B
b101101100 u
b101101100 J"
b11100 &"
b10001100000011010000000001010100 K
b10001100000011010000000001010100 ""
b100000 r
b100000 I"
b11100 (
b11100 E
b11100 %"
1$
#900
0$
#950
1D
0R
0I
b10 W
b10 Z
b10 ^
b110000010 `
b11100000010000000 l
0x
b1100 y
b1100 ;"
b1100 g
b1100 Y"
b111000000100000 m
b111000000100000 ]"
1:
1P
1;
b100100 t
b100100 O"
b10001110011100000000000000001 )
b10001110011100000000000000001 1
b10001110011100000000000000001 4
b10001110011100000000000000001 b
b110101001011100000010000000 N"
1i"
b100100 s
b100100 K"
b100100 M"
b1000 0
b1101 ?
b1101 o
b1101 U"
b1101 j"
b1001 =
b1001 n
b1001 V"
b1001 l"
b1110 q
b111000000100000 \"
b100000 U
b100000 Y
b0 V
b0 ]
b1101 8
b1101 f
b1101 f"
b1101 n"
b0 i
b0 H"
b0 `"
b0 L
b0 v
b0 E"
b0 r"
b100100 r
b100100 I"
b100000 (
b100000 E
b100000 %"
b11100000010100000 u
b11100000010100000 J"
b100000 &"
b1101010010111000000100000 K
b1101010010111000000100000 ""
b1101 <
b1101 +"
b1101 d"
b1101 m"
0$"
1H
1B
b1010100 #
b1010100 *
b1010100 -
b1010100 S
b1010100 }
b1010100 >"
b1010100 D"
1"
0A
b1100 6
b1100 1"
b1100 W"
b1100 p"
1$
#1000
0$
#1050
b1010100 z
b1010100 :"
1O
b0 3"
b0 4"
0:
0P
0;
b1010100 p
b1010100 @"
b1010100 F"
b1010100 S"
b1010100 X"
b0 8
b0 f
b0 f"
b0 n"
1e
b0 {
b0 9"
b0 h
b0 5"
b0 b"
0i"
b1100 '
b1100 +
b1100 5
b1100 d
b1010100 ~
b1010100 Q"
0@
b1101 7
b1101 0"
b1101 o"
b0 !
b0 &
b0 ,
b0 9
b0 /"
0"
1G
1A
b0 <
b0 +"
b0 d"
b0 m"
b0 ,"
b0 a"
b0 |
b0 2"
0!"
0H
0B
1$
#1100
0$
#1150
b110 T
b110 X
b110 \
b110 a
1:
1P
1;
1c
1h"
0C
0D
1Q
b1 W
b1 Z
b1 ^
b100001 `
b100 l
1x
b0 y
b0 ;"
b0 g
b0 Y"
b1 m
b1 ]"
b1100 4"
b101000 t
b101000 O"
b100000000010000000000001100011 )
b100000000010000000000001100011 1
b100000000010000000000001100011 4
b100000000010000000000001100011 b
b111001110000000000000000100 N"
b1100 h
b1100 5"
b1100 b"
b101000 s
b101000 K"
b101000 M"
b1001 0
b1110 ?
b1110 o
b1110 U"
b1110 j"
b1110 =
b1110 n
b1110 V"
b1110 l"
b0 q
b1 \"
b1 U
b1 Y
b100 V
b100 ]
0e
b11000 {
b11000 9"
b1110 8
b1110 f
b1110 f"
b1110 n"
b0 z
b0 :"
bx '
bx +
bx 5
bx d
b11000 3"
b1100 k
b1100 6"
b1100 B"
b1100 i
b1100 H"
b1100 `"
0O
b1100 p
b1100 @"
b1100 F"
b1100 S"
b1100 X"
b1 N
b1 w
b1 ?"
b1 q"
b101000 r
b101000 I"
b100100 (
b100100 E
b100100 %"
b101000 u
b101000 J"
b100100 &"
b10001110011100000000000000001 K
b10001110011100000000000000001 ""
b1110 '"
b1110 e"
b1001 <
b1001 +"
b1001 d"
b1001 m"
b1101 >
b1101 *"
b1101 k"
b111000000100000 ,"
b111000000100000 a"
b1100 ."
b1100 C"
b10 |
b10 2"
1)"
1B
b0 7
b0 0"
b0 o"
b0 #
b0 *
b0 -
b0 S
b0 }
b0 >"
b0 D"
0G
0A
b1101 6
b1101 1"
b1101 W"
b1101 p"
b1100 ("
b1100 R"
1#"
1@
1$
#1200
0$
#1250
0:
0P
0;
b11000 z
b11000 :"
1x
b11000 y
b11000 ;"
b0 4"
0h"
1O
1M
1e
b0 h
b0 5"
b0 b"
b0 p
b0 @"
b0 F"
b0 S"
b0 X"
b0 3"
b0 k
b0 6"
b0 B"
b0 N
b0 w
b0 ?"
b0 q"
b0 i
b0 H"
b0 `"
b0 {
b0 9"
b0 8
b0 f
b0 f"
b0 n"
b0 6
b0 1"
b0 W"
b0 p"
b0 ~
b0 Q"
bx ("
bx R"
0#"
0@
b1110 7
b1110 0"
b1110 o"
b1100 !
b1100 &
b1100 ,
b1100 9
b1100 /"
b11000 #
b11000 *
b11000 -
b11000 S
b11000 }
b11000 >"
b11000 D"
1A
b0 '"
b0 e"
b0 <
b0 +"
b0 d"
b0 m"
b0 >
b0 *"
b0 k"
b0 ,"
b0 a"
b0 ."
b0 C"
b0 |
b0 2"
0)"
0B
1$
#1300
0$
#1350
b10 T
b10 X
b10 \
b10 a
0c
1C
1D
0Q
b10 W
b10 Z
b10 ^
b110000010 `
b0 l
b0 m
b0 ]"
b10101100000011100000000001011000 )
b10101100000011100000000001011000 1
b10101100000011100000000001011000 4
b10101100000011100000000001011000 b
b101100 t
b101100 O"
b0 N"
b11111111111111111111111111100111 4"
b11000 h
b11000 5"
b11000 b"
b1010 0
b101100 s
b101100 K"
b101100 M"
b0 ?
b0 o
b0 U"
b0 j"
b0 =
b0 n
b0 V"
b0 l"
b0 \"
b0 U
b0 Y
b0 V
b0 ]
b1110 8
b1110 f
b1110 f"
b1110 n"
1e
b0 {
b0 9"
b0 z
b0 :"
1x
b0 y
b0 ;"
b0 3"
b11000 k
b11000 6"
b11000 B"
b11000 i
b11000 H"
b11000 `"
0O
0M
b11000 p
b11000 @"
b11000 F"
b11000 S"
b11000 X"
b1 L
b1 v
b1 E"
b1 r"
b1 N
b1 w
b1 ?"
b1 q"
b101100 r
b101100 I"
b101000 (
b101000 E
b101000 %"
b101000 u
b101000 J"
b101000 &"
b0 K
b0 ""
b1110 <
b1110 +"
b1110 d"
b1110 m"
b1110 >
b1110 *"
b1110 k"
b1 ,"
b1 a"
b110 |
b110 2"
b0 7
b0 0"
b0 o"
b0 !
b0 &
b0 ,
b0 9
b0 /"
b0 #
b0 *
b0 -
b0 S
b0 }
b0 >"
b0 D"
0A
b1110 6
b1110 1"
b1110 W"
b1110 p"
b11000 ~
b11000 Q"
1@
1$
#1400
0$
#1450
0C
0D
1R
1F
b0 W
b0 Z
b0 ^
b10 T
b10 X
b10 \
b10 a
b1010000 `
b101100000 l
0x
b11000 y
b11000 ;"
b0 h
b0 5"
b0 b"
b11000 g
b11000 Y"
b1011000 m
b1011000 ]"
b0 i
b0 H"
b0 `"
b0 k
b0 6"
b0 B"
b0 4"
b0 3"
b1110000000000101100000 N"
b110000 t
b110000 O"
bx )
bx 1
bx 4
bx b
b0 p
b0 @"
b0 F"
b0 S"
b0 X"
b0 L
b0 v
b0 E"
b0 r"
b0 N
b0 w
b0 ?"
b0 q"
1e
b0 {
b0 9"
b0 8
b0 f
b0 f"
b0 n"
b1110 =
b1110 n
b1110 V"
b1110 l"
b1011000 \"
b11000 U
b11000 Y
b101011 V
b101011 ]
b110000 s
b110000 K"
b110000 M"
b1011 0
b0 6
b0 1"
b0 W"
b0 p"
b0 ~
b0 Q"
0@
b1110 7
b1110 0"
b1110 o"
b11000 !
b11000 &
b11000 ,
b11000 9
b11000 /"
b0 <
b0 +"
b0 d"
b0 m"
b0 >
b0 *"
b0 k"
b0 ,"
b0 a"
b10 |
b10 2"
1)"
1B
b110001100 u
b110001100 J"
b101100 &"
b10101100000011100000000001011000 K
b10101100000011100000000001011000 ""
b110000 r
b110000 I"
b101100 (
b101100 E
b101100 %"
1$
#1500
0$
#1550
0R
0F
b0 `
bx00 l
bx z
bx :"
xO
bx j
bx Z"
bx g
bx Y"
bx m
bx ]"
b110100 t
b110100 O"
b0xxxxxxxxxxxxxxxxxxxxxxxxxx00 N"
b1011000 3"
b1011000 4"
0e
b1011000 {
b1011000 9"
xx
bx y
bx ;"
b110100 s
b110100 K"
b110100 M"
b1100 0
bx ?
bx o
bx U"
bx j"
bx =
bx n
bx V"
bx l"
bx q
bx \"
bx U
bx Y
bx V
bx ]
b11000 i
b11000 H"
b11000 `"
b1110 8
b1110 f
b1110 f"
b1110 n"
b1011000 h
b1011000 5"
b1011000 b"
xM
b110100 r
b110100 I"
b110000 (
b110000 E
b110000 %"
bx u
bx J"
b110000 &"
bx K
bx ""
b1110 <
b1110 +"
b1110 d"
b1110 m"
b1011000 ,"
b1011000 a"
b11000 ."
b11000 C"
0)"
1!"
1$"
0B
b0 7
b0 0"
b0 o"
b0 !
b0 &
b0 ,
b0 9
b0 /"
1A
b1110 6
b1110 1"
b1110 W"
b1110 p"
1$
#1600
0$
#1650
bx 4"
xe
bx {
bx 9"
b111000 t
b111000 O"
0O
0M
bx 8
bx f
bx f"
bx n"
bx i
bx H"
bx `"
bx 3"
bx k
bx 6"
bx B"
bx h
bx 5"
bx b"
b111000 s
b111000 K"
b111000 M"
b1101 0
b0 6
b0 1"
b0 W"
b0 p"
1@
b1110 7
b1110 0"
b1110 o"
b11000 !
b11000 &
b11000 ,
b11000 9
b11000 /"
b1011000 #
b1011000 *
b1011000 -
b1011000 S
b1011000 }
b1011000 >"
b1011000 D"
1"
0A
bx '"
bx e"
bx <
bx +"
bx d"
bx m"
bx >
bx *"
bx k"
bx ,"
bx a"
bx ."
bx C"
bx -"
bx ="
0!"
0$"
b110100 &"
b111000 r
b111000 I"
b110100 (
b110100 E
b110100 %"
1$
